Practica_2/simulation/qsim/Practica2.msim.vcd
$comment
	File created using the following command:
		vcd file Practica2.msim.vcd -direction
$end
$date
	Thu Mar 09 22:17:54 2023
$end
$version
	ModelSim Version 2020.1
$end
$timescale
	1ps
$end

$scope module practica2_vhd_vec_tst $end
$var wire 1 ! CLK $end
$var wire 1 " E1 $end
$var wire 1 # E2 $end
$var wire 1 $ S1 $end
$var wire 1 % S2 $end

$scope module i1 $end
$var wire 1 & gnd $end
$var wire 1 ' vcc $end
$var wire 1 ( unknown $end
$var wire 1 ) devoe $end
$var wire 1 * devclrn $end
$var wire 1 + devpor $end
$var wire 1 , ww_devoe $end
$var wire 1 - ww_devclrn $end
$var wire 1 . ww_devpor $end
$var wire 1 / ww_S1 $end
$var wire 1 0 ww_CLK $end
$var wire 1 1 ww_E2 $end
$var wire 1 2 ww_E1 $end
$var wire 1 3 ww_S2 $end
$var wire 1 4 \~QUARTUS_CREATED_ADC1~_CHSEL_bus\ [4] $end
$var wire 1 5 \~QUARTUS_CREATED_ADC1~_CHSEL_bus\ [3] $end
$var wire 1 6 \~QUARTUS_CREATED_ADC1~_CHSEL_bus\ [2] $end
$var wire 1 7 \~QUARTUS_CREATED_ADC1~_CHSEL_bus\ [1] $end
$var wire 1 8 \~QUARTUS_CREATED_ADC1~_CHSEL_bus\ [0] $end
$var wire 1 9 \~QUARTUS_CREATED_ADC2~_CHSEL_bus\ [4] $end
$var wire 1 : \~QUARTUS_CREATED_ADC2~_CHSEL_bus\ [3] $end
$var wire 1 ; \~QUARTUS_CREATED_ADC2~_CHSEL_bus\ [2] $end
$var wire 1 < \~QUARTUS_CREATED_ADC2~_CHSEL_bus\ [1] $end
$var wire 1 = \~QUARTUS_CREATED_ADC2~_CHSEL_bus\ [0] $end
$var wire 1 > \CLK~inputclkctrl_INCLK_bus\ [3] $end
$var wire 1 ? \CLK~inputclkctrl_INCLK_bus\ [2] $end
$var wire 1 @ \CLK~inputclkctrl_INCLK_bus\ [1] $end
$var wire 1 A \CLK~inputclkctrl_INCLK_bus\ [0] $end
$var wire 1 B \~QUARTUS_CREATED_GND~I_combout\ $end
$var wire 1 C \~QUARTUS_CREATED_UNVM~~busy\ $end
$var wire 1 D \~QUARTUS_CREATED_ADC1~~eoc\ $end
$var wire 1 E \~QUARTUS_CREATED_ADC2~~eoc\ $end
$var wire 1 F \S1~output_o\ $end
$var wire 1 G \S2~output_o\ $end
$var wire 1 H \CLK~input_o\ $end
$var wire 1 I \CLK~inputclkctrl_outclk\ $end
$var wire 1 J \E2~input_o\ $end
$var wire 1 K \E1~input_o\ $end
$var wire 1 L \inst12~0_combout\ $end
$var wire 1 M \inst13~q\ $end
$var wire 1 N \inst11~0_combout\ $end
$var wire 1 O \inst14~q\ $end
$var wire 1 P \ALT_INV_inst13~q\ $end
$var wire 1 Q \ALT_INV_inst14~q\ $end
$upscope $end
$upscope $end
$enddefinitions $end
#0
$dumpvars
0!
0"
0#
1$
1%
0&
1'
x(
1)
1*
1+
1,
1-
1.
1/
00
01
02
13
0B
zC
zD
zE
1F
1G
0H
0I
0J
0K
0L
0M
1N
0O
1P
1Q
1>
1?
1@
0A
04
05
06
07
08
09
0:
0;
0<
0=
$end
#5000
1!
10
1H
1A
1I
1O
0Q
1L
0N
0F
0/
0$
#10000
0!
00
0H
0A
0I
#15000
1!
10
1H
1A
1I
1M
0O
1Q
0P
1N
0G
1F
03
1/
0%
1$
#20000
0!
00
0H
0A
0I
#25000
1!
10
1H
1A
1I
1O
0Q
0F
0/
0$
#30000
0!
00
0H
0A
0I
#35000
1!
10
1H
1A
1I
#40000
0!
00
0H
0A
0I
#45000
1!
10
1H
1A
1I
#50000
0!
00
0H
0A
0I
#55000
1!
10
1H
1A
1I
#60000
0!
00
0H
0A
0I
#65000
1!
10
1H
1A
1I
#70000
0!
00
0H
0A
0I
#75000
1!
10
1H
1A
1I
#80000
0!
00
0H
0A
0I
#85000
1!
10
1H
1A
1I
#90000
0!
00
0H
0A
0I
#95000
1!
10
1H
1A
1I
#100000
0!
00
0H
0A
0I
#105000
1!
10
1H
1A
1I
#110000
0!
00
0H
0A
0I
#115000
1!
10
1H
1A
1I
#120000
0!
00
0H
0A
0I
#125000
1!
10
1H
1A
1I
#130000
0!
00
0H
0A
0I
#135000
1!
10
1H
1A
1I
#140000
0!
00
0H
0A
0I
#145000
1!
10
1H
1A
1I
#150000
0!
1"
1#
00
12
11
1J
1K
0H
0A
0L
0N
0I
#155000
1!
10
1H
1A
1I
0M
0O
1Q
1P
1N
1G
1F
13
1/
1%
1$
#160000
0!
00
0H
0A
0I
#165000
1!
10
1H
1A
1I
1O
0Q
0F
0/
0$
#170000
0!
00
0H
0A
0I
#175000
1!
10
1H
1A
1I
#180000
0!
00
0H
0A
0I
#185000
1!
10
1H
1A
1I
#190000
0!
00
0H
0A
0I
#195000
1!
10
1H
1A
1I
#200000
0!
00
0H
0A
0I
#205000
1!
10
1H
1A
1I
#210000
0!
00
0H
0A
0I
#215000
1!
10
1H
1A
1I
#220000
0!
00
0H
0A
0I
#225000
1!
10
1H
1A
1I
#230000
0!
00
0H
0A
0I
#235000
1!
10
1H
1A
1I
#240000
0!
00
0H
0A
0I
#245000
1!
10
1H
1A
1I
#250000
0!
00
0H
0A
0I
#255000
1!
10
1H
1A
1I
#260000
0!
00
0H
0A
0I
#265000
1!
10
1H
1A
1I
#270000
0!
00
0H
0A
0I
#275000
1!
10
1H
1A
1I
#280000
0!
00
0H
0A
0I
#285000
1!
10
1H
1A
1I
#290000
0!
00
0H
0A
0I
#295000
1!
10
1H
1A
1I
#300000
0!
00
0H
0A
0I
#305000
1!
10
1H
1A
1I
#310000
0!
00
0H
0A
0I
#315000
1!
10
1H
1A
1I
#320000
0!
0"
0#
00
02
01
0J
0K
0H
0A
1L
0N
0I
#325000
1!
10
1H
1A
1I
1M
0O
1Q
0P
1N
0G
1F
03
1/
0%
1$
#330000
0!
00
0H
0A
0I
#335000
1!
10
1H
1A
1I
1O
0Q
0F
0/
0$
#340000
0!
00
0H
0A
0I
#345000
1!
10
1H
1A
1I
#350000
0!
00
0H
0A
0I
#355000
1!
10
1H
1A
1I
#360000
0!
00
0H
0A
0I
#365000
1!
10
1H
1A
1I
#370000
0!
00
0H
0A
0I
#375000
1!
10
1H
1A
1I
#380000
0!
00
0H
0A
0I
#385000
1!
10
1H
1A
1I
#390000
0!
00
0H
0A
0I
#395000
1!
10
1H
1A
1I
#400000
0!
00
0H
0A
0I
#405000
1!
10
1H
1A
1I
#410000
0!
00
0H
0A
0I
#415000
1!
10
1H
1A
1I
#420000
0!
00
0H
0A
0I
#425000
1!
10
1H
1A
1I
#430000
0!
00
0H
0A
0I
#435000
1!
10
1H
1A
1I
#440000
0!
00
0H
0A
0I
#445000
1!
10
1H
1A
1I
#450000
0!
00
0H
0A
0I
#455000
1!
10
1H
1A
1I
#460000
0!
00
0H
0A
0I
#465000
1!
10
1H
1A
1I
#470000
0!
00
0H
0A
0I
#475000
1!
10
1H
1A
1I
#480000
0!
00
0H
0A
0I
#485000
1!
10
1H
1A
1I
#490000
0!
00
0H
0A
0I
#495000
1!
10
1H
1A
1I
#500000
0!
00
0H
0A
0I
#505000
1!
10
1H
1A
1I
#510000
0!
1"
00
12
1K
0H
0A
0I
#515000
1!
10
1H
1A
1I
#520000
0!
00
0H
0A
0I
#525000
1!
10
1H
1A
1I
#530000
0!
00
0H
0A
0I
#535000
1!
10
1H
1A
1I
#540000
0!
00
0H
0A
0I
#545000
1!
10
1H
1A
1I
#550000
0!
00
0H
0A
0I
#555000
1!
10
1H
1A
1I
#560000
0!
00
0H
0A
0I
#565000
1!
10
1H
1A
1I
#570000
0!
00
0H
0A
0I
#575000
1!
10
1H
1A
1I
#580000
0!
00
0H
0A
0I
#585000
1!
10
1H
1A
1I
#590000
0!
00
0H
0A
0I
#595000
1!
10
1H
1A
1I
#600000
0!
0"
00
02
0K
0H
0A
0I
#605000
1!
10
1H
1A
1I
#610000
0!
00
0H
0A
0I
#615000
1!
10
1H
1A
1I
#620000
0!
00
0H
0A
0I
#625000
1!
10
1H
1A
1I
#630000
0!
00
0H
0A
0I
#635000
1!
10
1H
1A
1I
#640000
0!
00
0H
0A
0I
#645000
1!
10
1H
1A
1I
#650000
0!
00
0H
0A
0I
#655000
1!
10
1H
1A
1I
#660000
0!
00
0H
0A
0I
#665000
1!
10
1H
1A
1I
#670000
0!
00
0H
0A
0I
#675000
1!
10
1H
1A
1I
#680000
0!
00
0H
0A
0I
#685000
1!
10
1H
1A
1I
#690000
0!
00
0H
0A
0I
#695000
1!
10
1H
1A
1I
#700000
0!
00
0H
0A
0I
#705000
1!
10
1H
1A
1I
#710000
0!
00
0H
0A
0I
#715000
1!
10
1H
1A
1I
#720000
0!
00
0H
0A
0I
#725000
1!
10
1H
1A
1I
#730000
0!
00
0H
0A
0I
#735000
1!
10
1H
1A
1I
#740000
0!
00
0H
0A
0I
#745000
1!
10
1H
1A
1I
#750000
0!
00
0H
0A
0I
#755000
1!
10
1H
1A
1I
#760000
0!
00
0H
0A
0I
#765000
1!
10
1H
1A
1I
#770000
0!
1#
00
11
1J
0H
0A
0N
0I
#775000
1!
10
1H
1A
1I
0O
1Q
1N
1F
1/
1$
#780000
0!
00
0H
0A
0I
#785000
1!
10
1H
1A
1I
1O
0Q
0N
0F
0/
0$
#790000
0!
00
0H
0A
0I
#795000
1!
10
1H
1A
1I
0O
1Q
1N
1F
1/
1$
#800000
0!
00
0H
0A
0I
#805000
1!
10
1H
1A
1I
1O
0Q
0N
0F
0/
0$
#810000
0!
00
0H
0A
0I
#815000
1!
10
1H
1A
1I
0O
1Q
1N
1F
1/
1$
#820000
0!
00
0H
0A
0I
#825000
1!
10
1H
1A
1I
1O
0Q
0N
0F
0/
0$
#830000
0!
00
0H
0A
0I
#835000
1!
10
1H
1A
1I
0O
1Q
1N
1F
1/
1$
#840000
0!
00
0H
0A
0I
#845000
1!
10
1H
1A
1I
1O
0Q
0N
0F
0/
0$
#850000
0!
00
0H
0A
0I
#855000
1!
10
1H
1A
1I
0O
1Q
1N
1F
1/
1$
#860000
0!
00
0H
0A
0I
#865000
1!
10
1H
1A
1I
1O
0Q
0N
0F
0/
0$
#870000
0!
00
0H
0A
0I
#875000
1!
10
1H
1A
1I
0O
1Q
1N
1F
1/
1$
#880000
0!
00
0H
0A
0I
#885000
1!
10
1H
1A
1I
1O
0Q
0N
0F
0/
0$
#890000
0!
00
0H
0A
0I
#895000
1!
10
1H
1A
1I
0O
1Q
1N
1F
1/
1$
#900000
0!
00
0H
0A
0I
#905000
1!
10
1H
1A
1I
1O
0Q
0N
0F
0/
0$
#910000
0!
00
0H
0A
0I
#915000
1!
10
1H
1A
1I
0O
1Q
1N
1F
1/
1$
#920000
0!
00
0H
0A
0I
#925000
1!
10
1H
1A
1I
1O
0Q
0N
0F
0/
0$
#930000
0!
0#
00
01
0J
0H
0A
1N
0I
#935000
1!
10
1H
1A
1I
#940000
0!
00
0H
0A
0I
#945000
1!
10
1H
1A
1I
#950000
0!
00
0H
0A
0I
#955000
1!
10
1H
1A
1I
#960000
0!
00
0H
0A
0I
#965000
1!
10
1H
1A
1I
#970000
0!
00
0H
0A
0I
#975000
1!
10
1H
1A
1I
#980000
0!
00
0H
0A
0I
#985000
1!
10
1H
1A
1I
#990000
0!
00
0H
0A
0I
#995000
1!
10
1H
1A
1I
