Practica_4/simulation/qsim/Practica_4.msim.vcd
$comment
	File created using the following command:
		vcd file Practica_4.msim.vcd -direction
$end
$date
	Fri Mar 31 08:37:58 2023
$end
$version
	ModelSim Version 2020.1
$end
$timescale
	1ps
$end

$scope module practica_4_vhd_vec_tst $end
$var wire 1 ! CLK $end
$var wire 1 " Data_out [2] $end
$var wire 1 # Data_out [1] $end
$var wire 1 $ Data_out [0] $end
$var wire 1 % RESET $end
$var wire 1 & salida [4] $end
$var wire 1 ' salida [3] $end
$var wire 1 ( salida [2] $end
$var wire 1 ) salida [1] $end
$var wire 1 * salida [0] $end
$var wire 1 + W $end
$var wire 1 , X $end
$var wire 1 - Y $end
$var wire 1 . Z $end

$scope module i1 $end
$var wire 1 / gnd $end
$var wire 1 0 vcc $end
$var wire 1 1 unknown $end
$var wire 1 2 devoe $end
$var wire 1 3 devclrn $end
$var wire 1 4 devpor $end
$var wire 1 5 ww_devoe $end
$var wire 1 6 ww_devclrn $end
$var wire 1 7 ww_devpor $end
$var wire 1 8 ww_Data_out [2] $end
$var wire 1 9 ww_Data_out [1] $end
$var wire 1 : ww_Data_out [0] $end
$var wire 1 ; ww_CLK $end
$var wire 1 < ww_RESET $end
$var wire 1 = ww_W $end
$var wire 1 > ww_X $end
$var wire 1 ? ww_Y $end
$var wire 1 @ ww_Z $end
$var wire 1 A ww_salida [4] $end
$var wire 1 B ww_salida [3] $end
$var wire 1 C ww_salida [2] $end
$var wire 1 D ww_salida [1] $end
$var wire 1 E ww_salida [0] $end
$var wire 1 F \~QUARTUS_CREATED_ADC1~_CHSEL_bus\ [4] $end
$var wire 1 G \~QUARTUS_CREATED_ADC1~_CHSEL_bus\ [3] $end
$var wire 1 H \~QUARTUS_CREATED_ADC1~_CHSEL_bus\ [2] $end
$var wire 1 I \~QUARTUS_CREATED_ADC1~_CHSEL_bus\ [1] $end
$var wire 1 J \~QUARTUS_CREATED_ADC1~_CHSEL_bus\ [0] $end
$var wire 1 K \~QUARTUS_CREATED_ADC2~_CHSEL_bus\ [4] $end
$var wire 1 L \~QUARTUS_CREATED_ADC2~_CHSEL_bus\ [3] $end
$var wire 1 M \~QUARTUS_CREATED_ADC2~_CHSEL_bus\ [2] $end
$var wire 1 N \~QUARTUS_CREATED_ADC2~_CHSEL_bus\ [1] $end
$var wire 1 O \~QUARTUS_CREATED_ADC2~_CHSEL_bus\ [0] $end
$var wire 1 P \CLK~inputclkctrl_INCLK_bus\ [3] $end
$var wire 1 Q \CLK~inputclkctrl_INCLK_bus\ [2] $end
$var wire 1 R \CLK~inputclkctrl_INCLK_bus\ [1] $end
$var wire 1 S \CLK~inputclkctrl_INCLK_bus\ [0] $end
$var wire 1 T \~QUARTUS_CREATED_GND~I_combout\ $end
$var wire 1 U \~QUARTUS_CREATED_UNVM~~busy\ $end
$var wire 1 V \~QUARTUS_CREATED_ADC1~~eoc\ $end
$var wire 1 W \~QUARTUS_CREATED_ADC2~~eoc\ $end
$var wire 1 X \Data_out[2]~output_o\ $end
$var wire 1 Y \Data_out[1]~output_o\ $end
$var wire 1 Z \Data_out[0]~output_o\ $end
$var wire 1 [ \salida[4]~output_o\ $end
$var wire 1 \ \salida[3]~output_o\ $end
$var wire 1 ] \salida[2]~output_o\ $end
$var wire 1 ^ \salida[1]~output_o\ $end
$var wire 1 _ \salida[0]~output_o\ $end
$var wire 1 ` \CLK~input_o\ $end
$var wire 1 a \CLK~inputclkctrl_outclk\ $end
$var wire 1 b \Z~input_o\ $end
$var wire 1 c \Y~input_o\ $end
$var wire 1 d \inst4|entrada~0_combout\ $end
$var wire 1 e \inst2|Mux17~0_combout\ $end
$var wire 1 f \W~input_o\ $end
$var wire 1 g \X~input_o\ $end
$var wire 1 h \inst4|entrada~1_combout\ $end
$var wire 1 i \inst4|entrada~2_combout\ $end
$var wire 1 j \inst2|Mux3~0_combout\ $end
$var wire 1 k \RESET~input_o\ $end
$var wire 1 l \inst2|Mux4~0_combout\ $end
$var wire 1 m \inst5|liga[2]~0_combout\ $end
$var wire 1 n \inst2|Mux8~0_combout\ $end
$var wire 1 o \inst7|salida[3]~0_combout\ $end
$var wire 1 p \inst2|Mux15~0_combout\ $end
$var wire 1 q \inst7|salida[1]~1_combout\ $end
$var wire 1 r \inst10|internal_value\ [2] $end
$var wire 1 s \inst10|internal_value\ [1] $end
$var wire 1 t \inst10|internal_value\ [0] $end
$var wire 1 u \inst2|ALT_INV_Mux8~0_combout\ $end
$upscope $end
$upscope $end
$enddefinitions $end
#0
$dumpvars
0!
1%
1+
1,
0-
1.
0/
10
x1
12
13
14
15
16
17
0;
1<
1=
1>
0?
1@
0T
zU
zV
zW
0X
0Y
0Z
1[
1\
0]
0^
0_
0`
0a
1b
0c
0d
0e
1f
1g
1h
1i
0j
1k
1l
0m
0n
1o
0p
0q
1u
08
09
0:
1A
1B
0C
0D
0E
0r
0s
0t
1P
1Q
1R
0S
0F
0G
0H
0I
0J
0K
0L
0M
0N
0O
0"
0#
0$
1&
1'
0(
0)
0*
$end
#5000
1!
1;
1`
1S
1a
1t
1Z
1d
1e
0l
1m
1:
1_
1$
1E
1*
#10000
0!
0;
0`
0S
0a
#15000
1!
1;
1`
1S
1a
0t
1r
1X
0Z
0d
0e
1j
0m
1n
1q
0u
18
0:
1^
0_
0$
1"
0[
1D
0E
0A
0*
1)
0&
#20000
0!
0;
0`
0S
0a
#25000
1!
1;
1`
1S
1a
1s
0r
0X
1Y
1l
0n
0q
1u
08
19
0^
1#
0"
1[
0D
1A
0)
1&
#30000
0!
0;
0`
0S
0a
#35000
1!
1;
1`
1S
1a
1t
1Z
1d
0l
1m
1n
0o
1p
0u
1:
1]
0\
1$
0[
1C
0B
0A
1(
0'
0&
#40000
0!
0;
0`
0S
0a
#45000
1!
1;
1`
1S
1a
0t
1r
1X
0Z
0d
1e
0m
0n
1o
0p
1q
1u
18
0:
1^
0]
1\
1_
0i
0$
1"
1[
1D
0C
1B
1E
0j
1l
1m
0q
1A
1*
1)
0(
1'
1&
0^
0D
0)
#50000
0!
0;
0`
0S
0a
#55000
1!
1;
1`
1S
1a
0s
1t
1Z
0Y
0e
1j
0m
1n
0u
1:
09
0_
1i
1$
0#
0[
0E
0A
0*
0&
#60000
0!
0;
0`
0S
0a
#65000
1!
1;
1`
1S
1a
1s
0r
0X
1Y
1d
0l
1m
0o
1p
08
19
1]
0\
1#
0"
1C
0B
1(
0'
#70000
0!
0;
0`
0S
0a
#75000
1!
1;
1`
1S
1a
0t
1r
1X
0Z
0d
1e
0m
0n
1o
0p
1q
1u
18
0:
1^
0]
1\
1_
0i
0$
1"
1[
1D
0C
1B
1E
0j
1l
1m
0q
1A
1*
1)
0(
1'
1&
0^
0D
0)
#80000
0!
0;
0`
0S
0a
#85000
1!
1;
1`
1S
1a
0s
1t
1Z
0Y
0e
1j
0m
1n
0u
1:
09
0_
1i
1$
0#
0[
0E
0A
0*
0&
#90000
0!
0;
0`
0S
0a
#95000
1!
1;
1`
1S
1a
1s
0r
0X
1Y
1d
0l
1m
0o
1p
08
19
1]
0\
1#
0"
1C
0B
1(
0'
#100000
0!
0;
0`
0S
0a
#105000
1!
1;
1`
1S
1a
0t
1r
1X
0Z
0d
1e
0m
0n
1o
0p
1q
1u
18
0:
1^
0]
1\
1_
0i
0$
1"
1[
1D
0C
1B
1E
0j
1l
1m
0q
1A
1*
1)
0(
1'
1&
0^
0D
0)
#110000
0!
0;
0`
0S
0a
#115000
1!
1;
1`
1S
1a
0s
1t
1Z
0Y
0e
1j
0m
1n
0u
1:
09
0_
1i
1$
0#
0[
0E
0A
0*
0&
#120000
0!
0;
0`
0S
0a
#125000
1!
1;
1`
1S
1a
1s
0r
0X
1Y
1d
0l
1m
0o
1p
08
19
1]
0\
1#
0"
1C
0B
1(
0'
#130000
0!
0;
0`
0S
0a
#135000
1!
1;
1`
1S
1a
0t
1r
1X
0Z
0d
1e
0m
0n
1o
0p
1q
1u
18
0:
1^
0]
1\
1_
0i
0$
1"
1[
1D
0C
1B
1E
0j
1l
1m
0q
1A
1*
1)
0(
1'
1&
0^
0D
0)
#140000
0!
0;
0`
0S
0a
#145000
1!
1;
1`
1S
1a
0s
1t
1Z
0Y
0e
1j
0m
1n
0u
1:
09
0_
1i
1$
0#
0[
0E
0A
0*
0&
#150000
0!
0;
0`
0S
0a
#155000
1!
1;
1`
1S
1a
1s
0r
0X
1Y
1d
0l
1m
0o
1p
08
19
1]
0\
1#
0"
1C
0B
1(
0'
#160000
0!
0;
0`
0S
0a
#165000
1!
1;
1`
1S
1a
0t
1r
1X
0Z
0d
1e
0m
0n
1o
0p
1q
1u
18
0:
1^
0]
1\
1_
0i
0$
1"
1[
1D
0C
1B
1E
0j
1l
1m
0q
1A
1*
1)
0(
1'
1&
0^
0D
0)
#170000
0!
0;
0`
0S
0a
#175000
1!
1;
1`
1S
1a
0s
1t
1Z
0Y
0e
1j
0m
1n
0u
1:
09
0_
1i
1$
0#
0[
0E
0A
0*
0&
#180000
0!
0;
0`
0S
0a
#185000
1!
1;
1`
1S
1a
1s
0r
0X
1Y
1d
0l
1m
0o
1p
08
19
1]
0\
1#
0"
1C
0B
1(
0'
#190000
0!
0;
0`
0S
0a
#195000
1!
1;
1`
1S
1a
0t
1r
1X
0Z
0d
1e
0m
0n
1o
0p
1q
1u
18
0:
1^
0]
1\
1_
0i
0$
1"
1[
1D
0C
1B
1E
0j
1l
1m
0q
1A
1*
1)
0(
1'
1&
0^
0D
0)
#200000
0!
0;
0`
0S
0a
#205000
1!
1;
1`
1S
1a
0s
1t
1Z
0Y
0e
1j
0m
1n
0u
1:
09
0_
1i
1$
0#
0[
0E
0A
0*
0&
#210000
0!
0;
0`
0S
0a
#215000
1!
1;
1`
1S
1a
1s
0r
0X
1Y
1d
0l
1m
0o
1p
08
19
1]
0\
1#
0"
1C
0B
1(
0'
#220000
0!
0;
0`
0S
0a
#225000
1!
1;
1`
1S
1a
0t
1r
1X
0Z
0d
1e
0m
0n
1o
0p
1q
1u
18
0:
1^
0]
1\
1_
0i
0$
1"
1[
1D
0C
1B
1E
0j
1l
1m
0q
1A
1*
1)
0(
1'
1&
0^
0D
0)
#230000
0!
0;
0`
0S
0a
#235000
1!
1;
1`
1S
1a
0s
1t
1Z
0Y
0e
1j
0m
1n
0u
1:
09
0_
1i
1$
0#
0[
0E
0A
0*
0&
#240000
0!
0;
0`
0S
0a
#245000
1!
1;
1`
1S
1a
1s
0r
0X
1Y
1d
0l
1m
0o
1p
08
19
1]
0\
1#
0"
1C
0B
1(
0'
#250000
0!
0;
0`
0S
0a
#255000
1!
1;
1`
1S
1a
0t
1r
1X
0Z
0d
1e
0m
0n
1o
0p
1q
1u
18
0:
1^
0]
1\
1_
0i
0$
1"
1[
1D
0C
1B
1E
0j
1l
1m
0q
1A
1*
1)
0(
1'
1&
0^
0D
0)
#260000
0!
0;
0`
0S
0a
#265000
1!
1;
1`
1S
1a
0s
1t
1Z
0Y
0e
1j
0m
1n
0u
1:
09
0_
1i
1$
0#
0[
0E
0A
0*
0&
#270000
0!
0;
0`
0S
0a
#275000
1!
1;
1`
1S
1a
1s
0r
0X
1Y
1d
0l
1m
0o
1p
08
19
1]
0\
1#
0"
1C
0B
1(
0'
#280000
0!
0;
0`
0S
0a
#285000
1!
1;
1`
1S
1a
0t
1r
1X
0Z
0d
1e
0m
0n
1o
0p
1q
1u
18
0:
1^
0]
1\
1_
0i
0$
1"
1[
1D
0C
1B
1E
0j
1l
1m
0q
1A
1*
1)
0(
1'
1&
0^
0D
0)
#290000
0!
0;
0`
0S
0a
#295000
1!
1;
1`
1S
1a
0s
1t
1Z
0Y
0e
1j
0m
1n
0u
1:
09
0_
1i
1$
0#
0[
0E
0A
0*
0&
#300000
0!
0;
0`
0S
0a
#305000
1!
1;
1`
1S
1a
1s
0r
0X
1Y
1d
0l
1m
0o
1p
08
19
1]
0\
1#
0"
1C
0B
1(
0'
#310000
0!
0;
0`
0S
0a
#315000
1!
1;
1`
1S
1a
0t
1r
1X
0Z
0d
1e
0m
0n
1o
0p
1q
1u
18
0:
1^
0]
1\
1_
0i
0$
1"
1[
1D
0C
1B
1E
0j
1l
1m
0q
1A
1*
1)
0(
1'
1&
0^
0D
0)
#320000
0!
0;
0`
0S
0a
#325000
1!
1;
1`
1S
1a
0s
1t
1Z
0Y
0e
1j
0m
1n
0u
1:
09
0_
1i
1$
0#
0[
0E
0A
0*
0&
#330000
0!
0;
0`
0S
0a
#335000
1!
1;
1`
1S
1a
1s
0r
0X
1Y
1d
0l
1m
0o
1p
08
19
1]
0\
1#
0"
1C
0B
1(
0'
#340000
0!
0;
0`
0S
0a
#345000
1!
1;
1`
1S
1a
0t
1r
1X
0Z
0d
1e
0m
0n
1o
0p
1q
1u
18
0:
1^
0]
1\
1_
0i
0$
1"
1[
1D
0C
1B
1E
0j
1l
1m
0q
1A
1*
1)
0(
1'
1&
0^
0D
0)
#350000
0!
0;
0`
0S
0a
#355000
1!
1;
1`
1S
1a
0s
1t
1Z
0Y
0e
1j
0m
1n
0u
1:
09
0_
1i
1$
0#
0[
0E
0A
0*
0&
#360000
0!
0;
0`
0S
0a
#365000
1!
1;
1`
1S
1a
1s
0r
0X
1Y
1d
0l
1m
0o
1p
08
19
1]
0\
1#
0"
1C
0B
1(
0'
#370000
0!
0;
0`
0S
0a
#375000
1!
1;
1`
1S
1a
0t
1r
1X
0Z
0d
1e
0m
0n
1o
0p
1q
1u
18
0:
1^
0]
1\
1_
0i
0$
1"
1[
1D
0C
1B
1E
0j
1l
1m
0q
1A
1*
1)
0(
1'
1&
0^
0D
0)
#380000
0!
0;
0`
0S
0a
#385000
1!
1;
1`
1S
1a
0s
1t
1Z
0Y
0e
1j
0m
1n
0u
1:
09
0_
1i
1$
0#
0[
0E
0A
0*
0&
#390000
0!
0;
0`
0S
0a
#395000
1!
1;
1`
1S
1a
1s
0r
0X
1Y
1d
0l
1m
0o
1p
08
19
1]
0\
1#
0"
1C
0B
1(
0'
#400000
0!
0;
0`
0S
0a
#405000
1!
1;
1`
1S
1a
0t
1r
1X
0Z
0d
1e
0m
0n
1o
0p
1q
1u
18
0:
1^
0]
1\
1_
0i
0$
1"
1[
1D
0C
1B
1E
0j
1l
1m
0q
1A
1*
1)
0(
1'
1&
0^
0D
0)
#410000
0!
0;
0`
0S
0a
#415000
1!
1;
1`
1S
1a
0s
1t
1Z
0Y
0e
1j
0m
1n
0u
1:
09
0_
1i
1$
0#
0[
0E
0A
0*
0&
#420000
0!
0;
0`
0S
0a
#425000
1!
1;
1`
1S
1a
1s
0r
0X
1Y
1d
0l
1m
0o
1p
08
19
1]
0\
1#
0"
1C
0B
1(
0'
#430000
0!
0;
0`
0S
0a
#435000
1!
1;
1`
1S
1a
0t
1r
1X
0Z
0d
1e
0m
0n
1o
0p
1q
1u
18
0:
1^
0]
1\
1_
0i
0$
1"
1[
1D
0C
1B
1E
0j
1l
1m
0q
1A
1*
1)
0(
1'
1&
0^
0D
0)
#440000
0!
0;
0`
0S
0a
#445000
1!
1;
1`
1S
1a
0s
1t
1Z
0Y
0e
1j
0m
1n
0u
1:
09
0_
1i
1$
0#
0[
0E
0A
0*
0&
#450000
0!
0;
0`
0S
0a
#455000
1!
1;
1`
1S
1a
1s
0r
0X
1Y
1d
0l
1m
0o
1p
08
19
1]
0\
1#
0"
1C
0B
1(
0'
#460000
0!
0;
0`
0S
0a
#465000
1!
1;
1`
1S
1a
0t
1r
1X
0Z
0d
1e
0m
0n
1o
0p
1q
1u
18
0:
1^
0]
1\
1_
0i
0$
1"
1[
1D
0C
1B
1E
0j
1l
1m
0q
1A
1*
1)
0(
1'
1&
0^
0D
0)
#470000
0!
0;
0`
0S
0a
#475000
1!
1;
1`
1S
1a
0s
1t
1Z
0Y
0e
1j
0m
1n
0u
1:
09
0_
1i
1$
0#
0[
0E
0A
0*
0&
#480000
0!
0;
0`
0S
0a
#485000
1!
1;
1`
1S
1a
1s
0r
0X
1Y
1d
0l
1m
0o
1p
08
19
1]
0\
1#
0"
1C
0B
1(
0'
#490000
0!
0;
0`
0S
0a
#495000
1!
1;
1`
1S
1a
0t
1r
1X
0Z
0d
1e
0m
0n
1o
0p
1q
1u
18
0:
1^
0]
1\
1_
0i
0$
1"
1[
1D
0C
1B
1E
0j
1l
1m
0q
1A
1*
1)
0(
1'
1&
0^
0D
0)
#500000
0!
0;
0`
0S
0a
#505000
1!
1;
1`
1S
1a
0s
1t
1Z
0Y
0e
1j
0m
1n
0u
1:
09
0_
1i
1$
0#
0[
0E
0A
0*
0&
#510000
0!
0;
0`
0S
0a
#515000
1!
1;
1`
1S
1a
1s
0r
0X
1Y
1d
0l
1m
0o
1p
08
19
1]
0\
1#
0"
1C
0B
1(
0'
#520000
0!
0;
0`
0S
0a
#525000
1!
1;
1`
1S
1a
0t
1r
1X
0Z
0d
1e
0m
0n
1o
0p
1q
1u
18
0:
1^
0]
1\
1_
0i
0$
1"
1[
1D
0C
1B
1E
0j
1l
1m
0q
1A
1*
1)
0(
1'
1&
0^
0D
0)
#530000
0!
0;
0`
0S
0a
#535000
1!
1;
1`
1S
1a
0s
1t
1Z
0Y
0e
1j
0m
1n
0u
1:
09
0_
1i
1$
0#
0[
0E
0A
0*
0&
#540000
0!
0;
0`
0S
0a
#545000
1!
1;
1`
1S
1a
1s
0r
0X
1Y
1d
0l
1m
0o
1p
08
19
1]
0\
1#
0"
1C
0B
1(
0'
#550000
0!
0;
0`
0S
0a
#555000
1!
1;
1`
1S
1a
0t
1r
1X
0Z
0d
1e
0m
0n
1o
0p
1q
1u
18
0:
1^
0]
1\
1_
0i
0$
1"
1[
1D
0C
1B
1E
0j
1l
1m
0q
1A
1*
1)
0(
1'
1&
0^
0D
0)
#560000
0!
0;
0`
0S
0a
#565000
1!
1;
1`
1S
1a
0s
1t
1Z
0Y
0e
1j
0m
1n
0u
1:
09
0_
1i
1$
0#
0[
0E
0A
0*
0&
#570000
0!
0;
0`
0S
0a
#575000
1!
1;
1`
1S
1a
1s
0r
0X
1Y
1d
0l
1m
0o
1p
08
19
1]
0\
1#
0"
1C
0B
1(
0'
#580000
0!
0;
0`
0S
0a
#585000
1!
1;
1`
1S
1a
0t
1r
1X
0Z
0d
1e
0m
0n
1o
0p
1q
1u
18
0:
1^
0]
1\
1_
0i
0$
1"
1[
1D
0C
1B
1E
0j
1l
1m
0q
1A
1*
1)
0(
1'
1&
0^
0D
0)
#590000
0!
0;
0`
0S
0a
#595000
1!
1;
1`
1S
1a
0s
1t
1Z
0Y
0e
1j
0m
1n
0u
1:
09
0_
1i
1$
0#
0[
0E
0A
0*
0&
#600000
0!
0;
0`
0S
0a
#605000
1!
1;
1`
1S
1a
1s
0r
0X
1Y
1d
0l
1m
0o
1p
08
19
1]
0\
1#
0"
1C
0B
1(
0'
#610000
0!
0;
0`
0S
0a
#615000
1!
1;
1`
1S
1a
0t
1r
1X
0Z
0d
1e
0m
0n
1o
0p
1q
1u
18
0:
1^
0]
1\
1_
0i
0$
1"
1[
1D
0C
1B
1E
0j
1l
1m
0q
1A
1*
1)
0(
1'
1&
0^
0D
0)
#620000
0!
0;
0`
0S
0a
#625000
1!
1;
1`
1S
1a
0s
1t
1Z
0Y
0e
1j
0m
1n
0u
1:
09
0_
1i
1$
0#
0[
0E
0A
0*
0&
#630000
0!
0;
0`
0S
0a
#635000
1!
1;
1`
1S
1a
1s
0r
0X
1Y
1d
0l
1m
0o
1p
08
19
1]
0\
1#
0"
1C
0B
1(
0'
#640000
0!
0;
0`
0S
0a
#645000
1!
1;
1`
1S
1a
0t
1r
1X
0Z
0d
1e
0m
0n
1o
0p
1q
1u
18
0:
1^
0]
1\
1_
0i
0$
1"
1[
1D
0C
1B
1E
0j
1l
1m
0q
1A
1*
1)
0(
1'
1&
0^
0D
0)
#650000
0!
0;
0`
0S
0a
#655000
1!
1;
1`
1S
1a
0s
1t
1Z
0Y
0e
1j
0m
1n
0u
1:
09
0_
1i
1$
0#
0[
0E
0A
0*
0&
#660000
0!
0;
0`
0S
0a
#665000
1!
1;
1`
1S
1a
1s
0r
0X
1Y
1d
0l
1m
0o
1p
08
19
1]
0\
1#
0"
1C
0B
1(
0'
#670000
0!
0;
0`
0S
0a
#675000
1!
1;
1`
1S
1a
0t
1r
1X
0Z
0d
1e
0m
0n
1o
0p
1q
1u
18
0:
1^
0]
1\
1_
0i
0$
1"
1[
1D
0C
1B
1E
0j
1l
1m
0q
1A
1*
1)
0(
1'
1&
0^
0D
0)
#680000
0!
0;
0`
0S
0a
#685000
1!
1;
1`
1S
1a
0s
1t
1Z
0Y
0e
1j
0m
1n
0u
1:
09
0_
1i
1$
0#
0[
0E
0A
0*
0&
#690000
0!
0;
0`
0S
0a
#695000
1!
1;
1`
1S
1a
1s
0r
0X
1Y
1d
0l
1m
0o
1p
08
19
1]
0\
1#
0"
1C
0B
1(
0'
#700000
0!
0;
0`
0S
0a
#705000
1!
1;
1`
1S
1a
0t
1r
1X
0Z
0d
1e
0m
0n
1o
0p
1q
1u
18
0:
1^
0]
1\
1_
0i
0$
1"
1[
1D
0C
1B
1E
0j
1l
1m
0q
1A
1*
1)
0(
1'
1&
0^
0D
0)
#710000
0!
0;
0`
0S
0a
#715000
1!
1;
1`
1S
1a
0s
1t
1Z
0Y
0e
1j
0m
1n
0u
1:
09
0_
1i
1$
0#
0[
0E
0A
0*
0&
#720000
0!
0;
0`
0S
0a
#725000
1!
1;
1`
1S
1a
1s
0r
0X
1Y
1d
0l
1m
0o
1p
08
19
1]
0\
1#
0"
1C
0B
1(
0'
#730000
0!
0;
0`
0S
0a
#735000
1!
1;
1`
1S
1a
0t
1r
1X
0Z
0d
1e
0m
0n
1o
0p
1q
1u
18
0:
1^
0]
1\
1_
0i
0$
1"
1[
1D
0C
1B
1E
0j
1l
1m
0q
1A
1*
1)
0(
1'
1&
0^
0D
0)
#740000
0!
0;
0`
0S
0a
#745000
1!
1;
1`
1S
1a
0s
1t
1Z
0Y
0e
1j
0m
1n
0u
1:
09
0_
1i
1$
0#
0[
0E
0A
0*
0&
#750000
0!
0;
0`
0S
0a
#755000
1!
1;
1`
1S
1a
1s
0r
0X
1Y
1d
0l
1m
0o
1p
08
19
1]
0\
1#
0"
1C
0B
1(
0'
#760000
0!
0;
0`
0S
0a
#765000
1!
1;
1`
1S
1a
0t
1r
1X
0Z
0d
1e
0m
0n
1o
0p
1q
1u
18
0:
1^
0]
1\
1_
0i
0$
1"
1[
1D
0C
1B
1E
0j
1l
1m
0q
1A
1*
1)
0(
1'
1&
0^
0D
0)
#770000
0!
0;
0`
0S
0a
#775000
1!
1;
1`
1S
1a
0s
1t
1Z
0Y
0e
1j
0m
1n
0u
1:
09
0_
1i
1$
0#
0[
0E
0A
0*
0&
#780000
0!
0;
0`
0S
0a
#785000
1!
1;
1`
1S
1a
1s
0r
0X
1Y
1d
0l
1m
0o
1p
08
19
1]
0\
1#
0"
1C
0B
1(
0'
#790000
0!
0;
0`
0S
0a
#795000
1!
1;
1`
1S
1a
0t
1r
1X
0Z
0d
1e
0m
0n
1o
0p
1q
1u
18
0:
1^
0]
1\
1_
0i
0$
1"
1[
1D
0C
1B
1E
0j
1l
1m
0q
1A
1*
1)
0(
1'
1&
0^
0D
0)
#800000
0!
0;
0`
0S
0a
#805000
1!
1;
1`
1S
1a
0s
1t
1Z
0Y
0e
1j
0m
1n
0u
1:
09
0_
1i
1$
0#
0[
0E
0A
0*
0&
#810000
0!
0;
0`
0S
0a
#815000
1!
1;
1`
1S
1a
1s
0r
0X
1Y
1d
0l
1m
0o
1p
08
19
1]
0\
1#
0"
1C
0B
1(
0'
#820000
0!
0;
0`
0S
0a
#825000
1!
1;
1`
1S
1a
0t
1r
1X
0Z
0d
1e
0m
0n
1o
0p
1q
1u
18
0:
1^
0]
1\
1_
0i
0$
1"
1[
1D
0C
1B
1E
0j
1l
1m
0q
1A
1*
1)
0(
1'
1&
0^
0D
0)
#830000
0!
0;
0`
0S
0a
#835000
1!
1;
1`
1S
1a
0s
1t
1Z
0Y
0e
1j
0m
1n
0u
1:
09
0_
1i
1$
0#
0[
0E
0A
0*
0&
#840000
0!
0;
0`
0S
0a
#845000
1!
1;
1`
1S
1a
1s
0r
0X
1Y
1d
0l
1m
0o
1p
08
19
1]
0\
1#
0"
1C
0B
1(
0'
#850000
0!
0;
0`
0S
0a
#855000
1!
1;
1`
1S
1a
0t
1r
1X
0Z
0d
1e
0m
0n
1o
0p
1q
1u
18
0:
1^
0]
1\
1_
0i
0$
1"
1[
1D
0C
1B
1E
0j
1l
1m
0q
1A
1*
1)
0(
1'
1&
0^
0D
0)
#860000
0!
0;
0`
0S
0a
#865000
1!
1;
1`
1S
1a
0s
1t
1Z
0Y
0e
1j
0m
1n
0u
1:
09
0_
1i
1$
0#
0[
0E
0A
0*
0&
#870000
0!
0;
0`
0S
0a
#875000
1!
1;
1`
1S
1a
1s
0r
0X
1Y
1d
0l
1m
0o
1p
08
19
1]
0\
1#
0"
1C
0B
1(
0'
#880000
0!
0;
0`
0S
0a
#885000
1!
1;
1`
1S
1a
0t
1r
1X
0Z
0d
1e
0m
0n
1o
0p
1q
1u
18
0:
1^
0]
1\
1_
0i
0$
1"
1[
1D
0C
1B
1E
0j
1l
1m
0q
1A
1*
1)
0(
1'
1&
0^
0D
0)
#890000
0!
0;
0`
0S
0a
#895000
1!
1;
1`
1S
1a
0s
1t
1Z
0Y
0e
1j
0m
1n
0u
1:
09
0_
1i
1$
0#
0[
0E
0A
0*
0&
#900000
0!
0;
0`
0S
0a
#905000
1!
1;
1`
1S
1a
1s
0r
0X
1Y
1d
0l
1m
0o
1p
08
19
1]
0\
1#
0"
1C
0B
1(
0'
#910000
0!
0;
0`
0S
0a
#915000
1!
1;
1`
1S
1a
0t
1r
1X
0Z
0d
1e
0m
0n
1o
0p
1q
1u
18
0:
1^
0]
1\
1_
0i
0$
1"
1[
1D
0C
1B
1E
0j
1l
1m
0q
1A
1*
1)
0(
1'
1&
0^
0D
0)
#920000
0!
0;
0`
0S
0a
#925000
1!
1;
1`
1S
1a
0s
1t
1Z
0Y
0e
1j
0m
1n
0u
1:
09
0_
1i
1$
0#
0[
0E
0A
0*
0&
#930000
0!
0;
0`
0S
0a
#935000
1!
1;
1`
1S
1a
1s
0r
0X
1Y
1d
0l
1m
0o
1p
08
19
1]
0\
1#
0"
1C
0B
1(
0'
#940000
0!
0;
0`
0S
0a
#945000
1!
1;
1`
1S
1a
0t
1r
1X
0Z
0d
1e
0m
0n
1o
0p
1q
1u
18
0:
1^
0]
1\
1_
0i
0$
1"
1[
1D
0C
1B
1E
0j
1l
1m
0q
1A
1*
1)
0(
1'
1&
0^
0D
0)
#950000
0!
0;
0`
0S
0a
#955000
1!
1;
1`
1S
1a
0s
1t
1Z
0Y
0e
1j
0m
1n
0u
1:
09
0_
1i
1$
0#
0[
0E
0A
0*
0&
#960000
0!
0;
0`
0S
0a
#965000
1!
1;
1`
1S
1a
1s
0r
0X
1Y
1d
0l
1m
0o
1p
08
19
1]
0\
1#
0"
1C
0B
1(
0'
#970000
0!
0;
0`
0S
0a
#975000
1!
1;
1`
1S
1a
0t
1r
1X
0Z
0d
1e
0m
0n
1o
0p
1q
1u
18
0:
1^
0]
1\
1_
0i
0$
1"
1[
1D
0C
1B
1E
0j
1l
1m
0q
1A
1*
1)
0(
1'
1&
0^
0D
0)
#980000
0!
0;
0`
0S
0a
#985000
1!
1;
1`
1S
1a
0s
1t
1Z
0Y
0e
1j
0m
1n
0u
1:
09
0_
1i
1$
0#
0[
0E
0A
0*
0&
#990000
0!
0;
0`
0S
0a
#995000
1!
1;
1`
1S
1a
1s
0r
0X
1Y
1d
0l
1m
0o
1p
08
19
1]
0\
1#
0"
1C
0B
1(
0'
