Practica_1/simulation/qsim/Practica1.msim.vcd
$comment
	File created using the following command:
		vcd file Practica1.msim.vcd -direction
$end
$date
	Wed Mar 01 17:24:33 2023
$end
$version
	ModelSim Version 2020.1
$end
$timescale
	1ps
$end

$scope module Practica1_vlg_vec_tst $end
$var reg 1 ! CLK $end
$var reg 1 " RESET $end
$var wire 1 # A $end
$var wire 1 $ B $end
$var wire 1 % C $end
$var wire 1 & D $end

$scope module i1 $end
$var wire 1 ' gnd $end
$var wire 1 ( vcc $end
$var wire 1 ) unknown $end
$var tri1 1 * devclrn $end
$var tri1 1 + devpor $end
$var tri1 1 , devoe $end
$var wire 1 - ~QUARTUS_CREATED_GND~I_combout $end
$var wire 1 . ~QUARTUS_CREATED_UNVM~~busy $end
$var wire 1 / ~QUARTUS_CREATED_ADC1~~eoc $end
$var wire 1 0 ~QUARTUS_CREATED_ADC2~~eoc $end
$var wire 1 1 A~output_o $end
$var wire 1 2 B~output_o $end
$var wire 1 3 C~output_o $end
$var wire 1 4 D~output_o $end
$var wire 1 5 CLK~input_o $end
$var wire 1 6 inst|26~0_combout $end
$var wire 1 7 RESET~input_o $end
$var wire 1 8 RESET~inputclkctrl_outclk $end
$var wire 1 9 inst|26~q $end
$var wire 1 : inst|5~combout $end
$var wire 1 ; inst|25~0_combout $end
$var wire 1 < inst|25~q $end
$var wire 1 = inst|51~combout $end
$var wire 1 > inst|24~0_combout $end
$var wire 1 ? inst|24~q $end
$var wire 1 @ inst|21~combout $end
$var wire 1 A inst|23~0_combout $end
$var wire 1 B inst|23~q $end
$upscope $end
$upscope $end
$enddefinitions $end
#0
$dumpvars
0!
0"
0#
0$
0%
0&
0'
1(
x)
1*
1+
1,
0-
z.
z/
z0
01
02
03
04
05
16
07
08
09
1:
1;
0<
1=
1>
0?
1@
1A
0B
$end
#5000
1!
15
19
11
1#
06
#10000
0!
05
0:
#15000
1!
15
1:
1<
09
01
12
1$
0#
0;
16
#20000
0!
05
#25000
1!
15
19
11
1#
06
#30000
0!
05
0=
0:
#35000
1!
15
1=
1:
1?
0<
09
01
02
13
1%
0$
0#
0>
1;
16
#40000
0!
05
#45000
1!
15
19
11
1#
06
#50000
0!
05
0:
#55000
1!
15
1:
1<
09
01
12
1$
0#
0;
16
#60000
0!
05
#65000
1!
15
19
11
1#
06
#70000
0!
05
0@
0=
0:
#75000
1!
15
1@
1=
1:
1B
0?
0<
09
01
02
03
14
1&
0%
0$
0#
0A
1>
1;
16
#80000
0!
05
#85000
1!
15
19
11
1#
06
#90000
0!
05
0:
#95000
1!
15
1:
1<
09
01
12
1$
0#
0;
16
#100000
0!
05
#105000
1!
15
19
11
1#
06
#110000
0!
05
0=
0:
#115000
1!
15
1=
1:
1?
0<
09
01
02
13
1%
0$
0#
0>
1;
16
#120000
0!
05
#125000
1!
15
19
11
1#
06
#130000
0!
05
0:
#135000
1!
15
1:
1<
09
01
12
1$
0#
0;
16
#140000
0!
05
#145000
1!
15
19
11
1#
06
#150000
0!
05
0@
0=
0:
#155000
1!
15
1@
1=
1:
0B
0?
0<
09
01
02
03
04
0&
0%
0$
0#
1A
1>
1;
16
#160000
0!
05
#165000
1!
15
19
11
1#
06
#170000
0!
05
0:
#175000
1!
15
1:
1<
09
01
12
1$
0#
0;
16
#180000
0!
05
#185000
1!
15
19
11
1#
06
#190000
0!
05
0=
0:
#195000
1!
15
1=
1:
1?
0<
09
01
02
13
1%
0$
0#
0>
1;
16
#200000
0!
05
#205000
1!
15
19
11
1#
06
#210000
0!
05
0:
#215000
1!
15
1:
1<
09
01
12
1$
0#
0;
16
#220000
0!
05
#225000
1!
15
19
11
1#
06
#230000
0!
05
0@
0=
0:
#235000
1!
15
1@
1=
1:
1B
0?
0<
09
01
02
03
14
1&
0%
0$
0#
0A
1>
1;
16
#240000
0!
05
#245000
1!
15
19
11
1#
06
#250000
0!
05
0:
#255000
1!
15
1:
1<
09
01
12
1$
0#
0;
16
#260000
0!
05
#265000
1!
15
19
11
1#
06
#270000
0!
05
0=
0:
#275000
1!
15
1=
1:
1?
0<
09
01
02
13
1%
0$
0#
0>
1;
16
#280000
0!
05
#285000
1!
15
19
11
1#
06
#290000
0!
05
0:
#295000
1!
15
1:
1<
09
01
12
1$
0#
0;
16
#300000
0!
05
#305000
1!
15
19
11
1#
06
#310000
0!
05
0@
0=
0:
#315000
1!
15
1@
1=
1:
0B
0?
0<
09
01
02
03
04
0&
0%
0$
0#
1A
1>
1;
16
#320000
0!
05
#325000
1!
15
19
11
1#
06
#330000
0!
05
0:
#335000
1!
15
1:
1<
09
01
12
1$
0#
0;
16
#340000
0!
05
#345000
1!
15
19
11
1#
06
#350000
0!
05
0=
0:
#355000
1!
15
1=
1:
1?
0<
09
01
02
13
1%
0$
0#
0>
1;
16
#360000
0!
05
#365000
1!
15
19
11
1#
06
#370000
0!
05
0:
#375000
1!
15
1:
1<
09
01
12
1$
0#
0;
16
#380000
0!
05
#385000
1!
15
19
11
1#
06
#390000
0!
05
0@
0=
0:
#395000
1!
15
1@
1=
1:
1B
0?
0<
09
01
02
03
14
1&
0%
0$
0#
0A
1>
1;
16
#400000
0!
05
#405000
1!
15
19
11
1#
06
#410000
0!
05
0:
#415000
1!
15
1:
1<
09
01
12
1$
0#
0;
16
#420000
0!
05
#425000
1!
15
19
11
1#
06
#430000
0!
05
0=
0:
#435000
1!
15
1=
1:
1?
0<
09
01
02
13
1%
0$
0#
0>
1;
16
#440000
0!
05
#445000
1!
15
19
11
1#
06
#450000
0!
05
0:
#455000
1!
15
1:
1<
09
01
12
1$
0#
0;
16
#460000
0!
05
#465000
1!
15
19
11
1#
06
#470000
0!
05
0@
0=
0:
#475000
1!
15
1@
1=
1:
0B
0?
0<
09
01
02
03
04
0&
0%
0$
0#
1A
1>
1;
16
#480000
0!
05
#485000
1!
15
19
11
1#
06
#490000
0!
05
0:
#495000
1!
15
1:
1<
09
01
12
1$
0#
0;
16
#500000
0!
05
#505000
1!
15
19
11
1#
06
#510000
0!
05
0=
0:
#515000
1!
15
1=
1:
1?
0<
09
01
02
13
1%
0$
0#
0>
1;
16
#520000
0!
05
#525000
1!
15
19
11
1#
06
#530000
0!
05
0:
#535000
1!
15
1:
1<
09
01
12
1$
0#
0;
16
#540000
0!
05
#545000
1!
15
19
11
1#
06
#550000
0!
05
0@
0=
0:
#555000
1!
15
1@
1=
1:
1B
0?
0<
09
01
02
03
14
1&
0%
0$
0#
0A
1>
1;
16
#560000
0!
05
#565000
1!
15
19
11
1#
06
#570000
0!
05
0:
#575000
1!
15
1:
1<
09
01
12
1$
0#
0;
16
#580000
0!
05
#585000
1!
15
19
11
1#
06
#590000
0!
05
0=
0:
#595000
1!
15
1=
1:
1?
0<
09
01
02
13
1%
0$
0#
0>
1;
16
#600000
0!
05
#605000
1!
15
19
11
1#
06
#610000
0!
05
0:
#615000
1!
15
1:
1<
09
01
12
1$
0#
0;
16
#620000
0!
05
#625000
1!
15
19
11
1#
06
#630000
0!
05
0@
0=
0:
#635000
1!
15
1@
1=
1:
0B
0?
0<
09
01
02
03
04
0&
0%
0$
0#
1A
1>
1;
16
#640000
0!
05
#645000
1!
15
19
11
1#
06
#650000
0!
05
0:
#655000
1!
15
1:
1<
09
01
12
1$
0#
0;
16
#660000
0!
05
#665000
1!
15
19
11
1#
06
#670000
0!
05
0=
0:
#675000
1!
15
1=
1:
1?
0<
09
01
02
13
1%
0$
0#
0>
1;
16
#680000
0!
05
#685000
1!
15
19
11
1#
06
#690000
0!
05
0:
#695000
1!
15
1:
1<
09
01
12
1$
0#
0;
16
#700000
0!
05
#705000
1!
15
19
11
1#
06
#710000
0!
05
0@
0=
0:
#715000
1!
15
1@
1=
1:
1B
0?
0<
09
01
02
03
14
1&
0%
0$
0#
0A
1>
1;
16
#720000
0!
05
#725000
1!
15
19
11
1#
06
#730000
0!
05
0:
#735000
1!
15
1:
1<
09
01
12
1$
0#
0;
16
#740000
0!
05
#745000
1!
15
19
11
1#
06
#750000
0!
05
0=
0:
#755000
1!
15
1=
1:
1?
0<
09
01
02
13
1%
0$
0#
0>
1;
16
#760000
0!
05
#765000
1!
15
19
11
1#
06
#770000
0!
05
0:
#775000
1!
15
1:
1<
09
01
12
1$
0#
0;
16
#780000
0!
05
#785000
1!
15
19
11
1#
06
#790000
0!
05
0@
0=
0:
#795000
1!
15
1@
1=
1:
0B
0?
0<
09
01
02
03
04
0&
0%
0$
0#
1A
1>
1;
16
#800000
0!
05
#805000
1!
15
19
11
1#
06
#810000
0!
05
0:
#815000
1!
15
1:
1<
09
01
12
1$
0#
0;
16
#820000
0!
05
#825000
1!
15
19
11
1#
06
#830000
0!
05
0=
0:
#835000
1!
15
1=
1:
1?
0<
09
01
02
13
1%
0$
0#
0>
1;
16
#840000
0!
05
#845000
1!
15
19
11
1#
06
#850000
0!
05
0:
#855000
1!
15
1:
1<
09
01
12
1$
0#
0;
16
#860000
0!
05
#865000
1!
15
19
11
1#
06
#870000
0!
05
0@
0=
0:
#875000
1!
15
1@
1=
1:
1B
0?
0<
09
01
02
03
14
1&
0%
0$
0#
0A
1>
1;
16
#880000
0!
05
#885000
1!
15
19
11
1#
06
#890000
0!
05
0:
#895000
1!
15
1:
1<
09
01
12
1$
0#
0;
16
#900000
0!
05
#905000
1!
15
19
11
1#
06
#910000
0!
05
0=
0:
#915000
1!
15
1=
1:
1?
0<
09
01
02
13
1%
0$
0#
0>
1;
16
#920000
0!
05
#925000
1!
15
19
11
1#
06
#930000
0!
05
0:
#935000
1!
15
1:
1<
09
01
12
1$
0#
0;
16
#940000
0!
05
#945000
1!
15
19
11
1#
06
#950000
0!
05
0@
0=
0:
#955000
1!
15
1@
1=
1:
0B
0?
0<
09
01
02
03
04
0&
0%
0$
0#
1A
1>
1;
16
#960000
0!
05
#965000
1!
15
19
11
1#
06
#970000
0!
05
0:
#975000
1!
15
1:
1<
09
01
12
1$
0#
0;
16
#980000
0!
05
#985000
1!
15
19
11
1#
06
#990000
0!
05
0=
0:
#995000
1!
15
1=
1:
1?
0<
09
01
02
13
1%
0$
0#
0>
1;
16
