Practica_6 - VF/Practica_6 - V2/simulation/qsim/Practica6.msim.vcd
$comment
	File created using the following command:
		vcd file Practica6.msim.vcd -direction
$end
$date
	Wed May 17 17:11:49 2023
$end
$version
	ModelSim Version 2020.1
$end
$timescale
	1ps
$end

$scope module practica6_vhd_vec_tst $end
$var wire 1 ! CLK $end
$var wire 1 " Entrada [3] $end
$var wire 1 # Entrada [2] $end
$var wire 1 $ Entrada [1] $end
$var wire 1 % Entrada [0] $end
$var wire 1 & Entradaint [3] $end
$var wire 1 ' Entradaint [2] $end
$var wire 1 ( Entradaint [1] $end
$var wire 1 ) Entradaint [0] $end
$var wire 1 * Entradatrans [3] $end
$var wire 1 + Entradatrans [2] $end
$var wire 1 , Entradatrans [1] $end
$var wire 1 - Entradatrans [0] $end
$var wire 1 . INT $end
$var wire 1 / RESET $end
$var wire 1 0 Salidas [5] $end
$var wire 1 1 Salidas [4] $end
$var wire 1 2 Salidas [3] $end
$var wire 1 3 Salidas [2] $end
$var wire 1 4 Salidas [1] $end
$var wire 1 5 Salidas [0] $end
$var wire 1 6 X $end
$var wire 1 7 Y $end

$scope module i1 $end
$var wire 1 8 gnd $end
$var wire 1 9 vcc $end
$var wire 1 : unknown $end
$var wire 1 ; devoe $end
$var wire 1 < devclrn $end
$var wire 1 = devpor $end
$var wire 1 > ww_devoe $end
$var wire 1 ? ww_devclrn $end
$var wire 1 @ ww_devpor $end
$var wire 1 A ww_Entrada [3] $end
$var wire 1 B ww_Entrada [2] $end
$var wire 1 C ww_Entrada [1] $end
$var wire 1 D ww_Entrada [0] $end
$var wire 1 E ww_CLK $end
$var wire 1 F ww_RESET $end
$var wire 1 G ww_X $end
$var wire 1 H ww_Y $end
$var wire 1 I ww_INT $end
$var wire 1 J ww_Entradaint [3] $end
$var wire 1 K ww_Entradaint [2] $end
$var wire 1 L ww_Entradaint [1] $end
$var wire 1 M ww_Entradaint [0] $end
$var wire 1 N ww_Entradatrans [3] $end
$var wire 1 O ww_Entradatrans [2] $end
$var wire 1 P ww_Entradatrans [1] $end
$var wire 1 Q ww_Entradatrans [0] $end
$var wire 1 R ww_Salidas [5] $end
$var wire 1 S ww_Salidas [4] $end
$var wire 1 T ww_Salidas [3] $end
$var wire 1 U ww_Salidas [2] $end
$var wire 1 V ww_Salidas [1] $end
$var wire 1 W ww_Salidas [0] $end
$var wire 1 X \~QUARTUS_CREATED_ADC1~_CHSEL_bus\ [4] $end
$var wire 1 Y \~QUARTUS_CREATED_ADC1~_CHSEL_bus\ [3] $end
$var wire 1 Z \~QUARTUS_CREATED_ADC1~_CHSEL_bus\ [2] $end
$var wire 1 [ \~QUARTUS_CREATED_ADC1~_CHSEL_bus\ [1] $end
$var wire 1 \ \~QUARTUS_CREATED_ADC1~_CHSEL_bus\ [0] $end
$var wire 1 ] \~QUARTUS_CREATED_ADC2~_CHSEL_bus\ [4] $end
$var wire 1 ^ \~QUARTUS_CREATED_ADC2~_CHSEL_bus\ [3] $end
$var wire 1 _ \~QUARTUS_CREATED_ADC2~_CHSEL_bus\ [2] $end
$var wire 1 ` \~QUARTUS_CREATED_ADC2~_CHSEL_bus\ [1] $end
$var wire 1 a \~QUARTUS_CREATED_ADC2~_CHSEL_bus\ [0] $end
$var wire 1 b \RESET~inputclkctrl_INCLK_bus\ [3] $end
$var wire 1 c \RESET~inputclkctrl_INCLK_bus\ [2] $end
$var wire 1 d \RESET~inputclkctrl_INCLK_bus\ [1] $end
$var wire 1 e \RESET~inputclkctrl_INCLK_bus\ [0] $end
$var wire 1 f \CLK~inputclkctrl_INCLK_bus\ [3] $end
$var wire 1 g \CLK~inputclkctrl_INCLK_bus\ [2] $end
$var wire 1 h \CLK~inputclkctrl_INCLK_bus\ [1] $end
$var wire 1 i \CLK~inputclkctrl_INCLK_bus\ [0] $end
$var wire 1 j \~QUARTUS_CREATED_GND~I_combout\ $end
$var wire 1 k \~QUARTUS_CREATED_UNVM~~busy\ $end
$var wire 1 l \~QUARTUS_CREATED_ADC1~~eoc\ $end
$var wire 1 m \~QUARTUS_CREATED_ADC2~~eoc\ $end
$var wire 1 n \Entrada[3]~output_o\ $end
$var wire 1 o \Entrada[2]~output_o\ $end
$var wire 1 p \Entrada[1]~output_o\ $end
$var wire 1 q \Entrada[0]~output_o\ $end
$var wire 1 r \Salidas[5]~output_o\ $end
$var wire 1 s \Salidas[4]~output_o\ $end
$var wire 1 t \Salidas[3]~output_o\ $end
$var wire 1 u \Salidas[2]~output_o\ $end
$var wire 1 v \Salidas[1]~output_o\ $end
$var wire 1 w \Salidas[0]~output_o\ $end
$var wire 1 x \CLK~input_o\ $end
$var wire 1 y \CLK~inputclkctrl_outclk\ $end
$var wire 1 z \Memoria|Mux6~0_combout\ $end
$var wire 1 { \RESET~input_o\ $end
$var wire 1 | \RESET~inputclkctrl_outclk\ $end
$var wire 1 } \Entradatrans[2]~input_o\ $end
$var wire 1 ~ \inst|inst|Add0~1_combout\ $end
$var wire 1 !! \Entradaint[2]~input_o\ $end
$var wire 1 "! \inst|inst4|L[2]~5_combout\ $end
$var wire 1 #! \inst|inst4|L[2]~6_combout\ $end
$var wire 1 $! \Memoria|Mux4~0_combout\ $end
$var wire 1 %! \Memoria|Mux3~0_combout\ $end
$var wire 1 &! \INT~input_o\ $end
$var wire 1 '! \Memoria|Mux1~0_combout\ $end
$var wire 1 (! \Memoria|Mux0~0_combout\ $end
$var wire 1 )! \Y~input_o\ $end
$var wire 1 *! \X~input_o\ $end
$var wire 1 +! \muxEn|L~0_combout\ $end
$var wire 1 ,! \muxEn|L~1_combout\ $end
$var wire 1 -! \inst|inst4|L[3]~4_combout\ $end
$var wire 1 .! \Memoria|Mux8~0_combout\ $end
$var wire 1 /! \Entradatrans[0]~input_o\ $end
$var wire 1 0! \inst|inst3|internal_value[0]~0_combout\ $end
$var wire 1 1! \Entradaint[0]~input_o\ $end
$var wire 1 2! \inst|inst4|L[0]~9_combout\ $end
$var wire 1 3! \inst|inst4|L[0]~10_combout\ $end
$var wire 1 4! \Memoria|Mux2~0_combout\ $end
$var wire 1 5! \VF|internal_value~q\ $end
$var wire 1 6! \inst|inst4|L[3]~0_combout\ $end
$var wire 1 7! \inst|inst|Add0~2_combout\ $end
$var wire 1 8! \Entradatrans[1]~input_o\ $end
$var wire 1 9! \Memoria|Mux7~0_combout\ $end
$var wire 1 :! \Entradaint[1]~input_o\ $end
$var wire 1 ;! \inst|inst4|L[1]~7_combout\ $end
$var wire 1 <! \inst|inst4|L[1]~8_combout\ $end
$var wire 1 =! \inst|inst|Add0~0_combout\ $end
$var wire 1 >! \Entradatrans[3]~input_o\ $end
$var wire 1 ?! \Entradaint[3]~input_o\ $end
$var wire 1 @! \Memoria|Mux5~0_combout\ $end
$var wire 1 A! \inst|inst4|L[3]~1_combout\ $end
$var wire 1 B! \inst|inst4|L[3]~2_combout\ $end
$var wire 1 C! \inst|inst4|L[3]~3_combout\ $end
$var wire 1 D! \Memoria|Mux15~0_combout\ $end
$var wire 1 E! \Memoria|Mux9~0_combout\ $end
$var wire 1 F! \muxsalida|L[5]~0_combout\ $end
$var wire 1 G! \Memoria|Mux16~0_combout\ $end
$var wire 1 H! \Memoria|Mux17~0_combout\ $end
$var wire 1 I! \Memoria|Mux18~0_combout\ $end
$var wire 1 J! \Memoria|Mux19~0_combout\ $end
$var wire 1 K! \Memoria|Mux20~0_combout\ $end
$var wire 1 L! \inst|inst3|internal_value\ [3] $end
$var wire 1 M! \inst|inst3|internal_value\ [2] $end
$var wire 1 N! \inst|inst3|internal_value\ [1] $end
$var wire 1 O! \inst|inst3|internal_value\ [0] $end
$var wire 1 P! \SalidaV|internal_value\ [5] $end
$var wire 1 Q! \SalidaV|internal_value\ [4] $end
$var wire 1 R! \SalidaV|internal_value\ [3] $end
$var wire 1 S! \SalidaV|internal_value\ [2] $end
$var wire 1 T! \SalidaV|internal_value\ [1] $end
$var wire 1 U! \SalidaV|internal_value\ [0] $end
$var wire 1 V! \Prueba|internal_value\ [1] $end
$var wire 1 W! \Prueba|internal_value\ [0] $end
$var wire 1 X! \Transformacion|internal_value\ [3] $end
$var wire 1 Y! \Transformacion|internal_value\ [2] $end
$var wire 1 Z! \Transformacion|internal_value\ [1] $end
$var wire 1 [! \Transformacion|internal_value\ [0] $end
$var wire 1 \! \MI|internal_value\ [1] $end
$var wire 1 ]! \MI|internal_value\ [0] $end
$var wire 1 ^! \Liga|internal_value\ [3] $end
$var wire 1 _! \Liga|internal_value\ [2] $end
$var wire 1 `! \Liga|internal_value\ [1] $end
$var wire 1 a! \Liga|internal_value\ [0] $end
$var wire 1 b! \salidaF|internal_value\ [5] $end
$var wire 1 c! \salidaF|internal_value\ [4] $end
$var wire 1 d! \salidaF|internal_value\ [3] $end
$var wire 1 e! \salidaF|internal_value\ [2] $end
$var wire 1 f! \salidaF|internal_value\ [1] $end
$var wire 1 g! \salidaF|internal_value\ [0] $end
$var wire 1 h! \Interrupcion|internal_value\ [3] $end
$var wire 1 i! \Interrupcion|internal_value\ [2] $end
$var wire 1 j! \Interrupcion|internal_value\ [1] $end
$var wire 1 k! \Interrupcion|internal_value\ [0] $end
$upscope $end
$upscope $end
$enddefinitions $end
#0
$dumpvars
0!
0.
1/
06
07
08
19
x:
1;
1<
1=
1>
1?
1@
0E
1F
0G
0H
0I
0j
zk
zl
zm
0n
0o
0p
0q
0r
0s
0t
0u
0v
0w
0x
0y
0z
1{
1|
1}
0~
0!!
0"!
0#!
0$!
0%!
0&!
0'!
0(!
0)!
0*!
0+!
0,!
0-!
0.!
1/!
10!
11!
02!
03!
04!
05!
16!
07!
08!
09!
1:!
0;!
0<!
0=!
0>!
1?!
0@!
0A!
0B!
0C!
0D!
0E!
0F!
0G!
0H!
0I!
0J!
1K!
1&
0'
1(
1)
0*
1+
0,
1-
0A
0B
0C
0D
1J
0K
1L
1M
0N
1O
0P
1Q
0R
0S
0T
0U
0V
0W
0L!
0M!
0N!
0O!
0P!
0Q!
0R!
0S!
0T!
0U!
0V!
0W!
0X!
0Y!
0Z!
0[!
0\!
0]!
0^!
0_!
0`!
0a!
0b!
xc!
xd!
xe!
xf!
xg!
0h!
0i!
0j!
0k!
1f
1g
1h
0i
1b
1c
1d
1e
0X
0Y
0Z
0[
0\
0]
0^
0_
0`
0a
0"
0#
0$
0%
00
01
02
03
04
05
$end
#5000
1!
1E
1x
1i
1y
1Y!
1[!
1O!
1k!
1j!
1h!
1U!
1w
12!
1W
13!
15
1q
1z
1$!
1.!
00!
14!
17!
19!
1H!
1I!
1J!
1D
1%
#10000
0!
0E
0x
0i
0y
#15000
1!
1E
1x
1i
1y
1_!
1]!
1a!
0O!
15!
1N!
1`!
1R!
1S!
1T!
1v
1u
1t
1<!
02!
1V
1U
1T
1p
03!
1~
0$!
0.!
04!
07!
09!
0I!
0K!
14
13
12
1C
0q
0z
0~
10!
17!
0H!
1K!
1$
0D
0%
#20000
0!
0E
0x
0i
0y
#25000
1!
1E
1x
1i
1y
0_!
0]!
0a!
1O!
05!
0`!
0R!
0S!
0u
0t
12!
0U
0T
13!
03
02
1q
1z
1~
00!
07!
1H!
0K!
1D
1%
#30000
0!
0E
0x
0i
0y
#35000
1!
1E
1x
1i
1y
1_!
1M!
0O!
0N!
1R!
0U!
0w
1t
0<!
02!
1"!
0W
1T
0p
1#!
03!
0~
1$!
1.!
14!
17!
19!
1I!
1K!
05
12
0C
0q
1o
10!
07!
0z
1~
0$!
1%!
0.!
09!
1G!
0H!
0I!
0J!
0K!
0$
0D
1B
0%
1#
#40000
0!
0E
0x
0i
0y
#45000
1!
1E
1x
1i
1y
0_!
1\!
1O!
15!
1Q!
0R!
0T!
0v
0t
1s
12!
1-!
1A!
0V
0T
1S
1B!
1;!
13!
04
02
11
1q
1$!
0%!
1'!
00!
04!
17!
19!
1@!
1E!
1J!
1D
1%
#50000
0!
0E
0x
0i
0y
#55000
1!
1E
1x
1i
1y
1]!
0\!
1W!
0O!
05!
1N!
1`!
1^!
1b!
1T!
1v
1F!
06!
1V
1r
0"!
02!
1<!
1C!
14
1R
1n
1p
0~
1(!
07!
09!
0@!
0E!
0G!
0J!
03!
0#!
10
1A
1C
0o
0q
10!
17!
1=!
1$
1"
0B
0D
0%
0#
#60000
0!
0E
0x
0i
0y
#65000
1!
1E
1x
1i
1y
0M!
1V!
1O!
0`!
1L!
0^!
0b!
0Q!
0T!
0v
0s
0F!
0A!
0;!
0V
0S
0r
0<!
0B!
04
01
0R
0p
0C!
1.!
07!
1D!
1E!
00
0C
0n
0$!
0'!
0(!
0.!
0=!
0D!
0E!
1K!
0$
0A
0"
#70000
0!
0E
0x
0i
0y
#75000
1!
1E
1x
1i
1y
0]!
0W!
0V!
0N!
0L!
1U!
1w
0-!
16!
1W
12!
15
13!
1q
1z
1$!
1.!
00!
14!
17!
19!
1H!
1I!
1J!
1D
1%
#80000
0!
0E
0x
0i
0y
#85000
1!
1E
1x
1i
1y
1_!
1]!
1a!
0O!
15!
1N!
1`!
1R!
1S!
1T!
1v
1u
1t
1<!
02!
1V
1U
1T
1p
03!
1~
0$!
0.!
04!
07!
09!
0I!
0K!
14
13
12
1C
0q
0z
0~
10!
17!
0H!
1K!
1$
0D
0%
#90000
0!
0E
0x
0i
0y
#95000
1!
1E
1x
1i
1y
0_!
0]!
0a!
1O!
05!
0`!
0R!
0S!
0u
0t
12!
0U
0T
13!
03
02
1q
1z
1~
00!
07!
1H!
0K!
1D
1%
#100000
0!
0E
0x
0i
0y
#105000
1!
1E
1x
1i
1y
1_!
1M!
0O!
0N!
1R!
0U!
0w
1t
0<!
02!
1"!
0W
1T
0p
1#!
03!
0~
1$!
1.!
14!
17!
19!
1I!
1K!
05
12
0C
0q
1o
10!
07!
0z
1~
0$!
1%!
0.!
09!
1G!
0H!
0I!
0J!
0K!
0$
0D
1B
0%
1#
#110000
0!
0E
0x
0i
0y
#115000
1!
1E
1x
1i
1y
0_!
1\!
1O!
15!
1Q!
0R!
0T!
0v
0t
1s
12!
1-!
1A!
0V
0T
1S
1B!
1;!
13!
04
02
11
1q
1$!
0%!
1'!
00!
04!
17!
19!
1@!
1E!
1J!
1D
1%
#120000
0!
0E
0x
0i
0y
#125000
1!
1E
1x
1i
1y
1]!
0\!
1W!
0O!
05!
1N!
1`!
1^!
1b!
1T!
1v
1F!
06!
1V
1r
0"!
02!
1<!
1C!
14
1R
1n
1p
0~
1(!
07!
09!
0@!
0E!
0G!
0J!
03!
0#!
10
1A
1C
0o
0q
10!
17!
1=!
1$
1"
0B
0D
0%
0#
#130000
0!
0E
0x
0i
0y
#135000
1!
1E
1x
1i
1y
0M!
1V!
1O!
0`!
1L!
0^!
0b!
0Q!
0T!
0v
0s
0F!
0A!
0;!
0V
0S
0r
0<!
0B!
04
01
0R
0p
0C!
1.!
07!
1D!
1E!
00
0C
0n
0$!
0'!
0(!
0.!
0=!
0D!
0E!
1K!
0$
0A
0"
#140000
0!
0E
0x
0i
0y
#145000
1!
1E
1x
1i
1y
0]!
0W!
0V!
0N!
0L!
1U!
1w
0-!
16!
1W
12!
15
13!
1q
1z
1$!
1.!
00!
14!
17!
19!
1H!
1I!
1J!
1D
1%
#150000
0!
0E
0x
0i
0y
#155000
1!
1E
1x
1i
1y
1_!
1]!
1a!
0O!
15!
1N!
1`!
1R!
1S!
1T!
1v
1u
1t
1<!
02!
1V
1U
1T
1p
03!
1~
0$!
0.!
04!
07!
09!
0I!
0K!
14
13
12
1C
0q
0z
0~
10!
17!
0H!
1K!
1$
0D
0%
#160000
0!
0E
0x
0i
0y
#165000
1!
1E
1x
1i
1y
0_!
0]!
0a!
1O!
05!
0`!
0R!
0S!
0u
0t
12!
0U
0T
13!
03
02
1q
1z
1~
00!
07!
1H!
0K!
1D
1%
#170000
0!
0E
0x
0i
0y
#175000
1!
1E
1x
1i
1y
1_!
1M!
0O!
0N!
1R!
0U!
0w
1t
0<!
02!
1"!
0W
1T
0p
1#!
03!
0~
1$!
1.!
14!
17!
19!
1I!
1K!
05
12
0C
0q
1o
10!
07!
0z
1~
0$!
1%!
0.!
09!
1G!
0H!
0I!
0J!
0K!
0$
0D
1B
0%
1#
#180000
0!
0E
0x
0i
0y
#185000
1!
1E
1x
1i
1y
0_!
1\!
1O!
15!
1Q!
0R!
0T!
0v
0t
1s
12!
1-!
1A!
0V
0T
1S
1B!
1;!
13!
04
02
11
1q
1$!
0%!
1'!
00!
04!
17!
19!
1@!
1E!
1J!
1D
1%
#190000
0!
0E
0x
0i
0y
#195000
1!
1E
1x
1i
1y
1]!
0\!
1W!
0O!
05!
1N!
1`!
1^!
1b!
1T!
1v
1F!
06!
1V
1r
0"!
02!
1<!
1C!
14
1R
1n
1p
0~
1(!
07!
09!
0@!
0E!
0G!
0J!
03!
0#!
10
1A
1C
0o
0q
10!
17!
1=!
1$
1"
0B
0D
0%
0#
#200000
0!
0E
0x
0i
0y
#205000
1!
1E
1x
1i
1y
0M!
1V!
1O!
0`!
1L!
0^!
0b!
0Q!
0T!
0v
0s
0F!
0A!
0;!
0V
0S
0r
0<!
0B!
04
01
0R
0p
0C!
1.!
07!
1D!
1E!
00
0C
0n
0$!
0'!
0(!
0.!
0=!
0D!
0E!
1K!
0$
0A
0"
#210000
0!
0E
0x
0i
0y
#215000
1!
1E
1x
1i
1y
0]!
0W!
0V!
0N!
0L!
1U!
1w
0-!
16!
1W
12!
15
13!
1q
1z
1$!
1.!
00!
14!
17!
19!
1H!
1I!
1J!
1D
1%
#220000
0!
0E
0x
0i
0y
#225000
1!
1E
1x
1i
1y
1_!
1]!
1a!
0O!
15!
1N!
1`!
1R!
1S!
1T!
1v
1u
1t
1<!
02!
1V
1U
1T
1p
03!
1~
0$!
0.!
04!
07!
09!
0I!
0K!
14
13
12
1C
0q
0z
0~
10!
17!
0H!
1K!
1$
0D
0%
#230000
0!
0E
0x
0i
0y
#235000
1!
1E
1x
1i
1y
0_!
0]!
0a!
1O!
05!
0`!
0R!
0S!
0u
0t
12!
0U
0T
13!
03
02
1q
1z
1~
00!
07!
1H!
0K!
1D
1%
#240000
0!
0E
0x
0i
0y
#245000
1!
1E
1x
1i
1y
1_!
1M!
0O!
0N!
1R!
0U!
0w
1t
0<!
02!
1"!
0W
1T
0p
1#!
03!
0~
1$!
1.!
14!
17!
19!
1I!
1K!
05
12
0C
0q
1o
10!
07!
0z
1~
0$!
1%!
0.!
09!
1G!
0H!
0I!
0J!
0K!
0$
0D
1B
0%
1#
#250000
0!
0E
0x
0i
0y
#255000
1!
1E
1x
1i
1y
0_!
1\!
1O!
15!
1Q!
0R!
0T!
0v
0t
1s
12!
1-!
1A!
0V
0T
1S
1B!
1;!
13!
04
02
11
1q
1$!
0%!
1'!
00!
04!
17!
19!
1@!
1E!
1J!
1D
1%
#260000
0!
0E
0x
0i
0y
#265000
1!
1E
1x
1i
1y
1]!
0\!
1W!
0O!
05!
1N!
1`!
1^!
1b!
1T!
1v
1F!
06!
1V
1r
0"!
02!
1<!
1C!
14
1R
1n
1p
0~
1(!
07!
09!
0@!
0E!
0G!
0J!
03!
0#!
10
1A
1C
0o
0q
10!
17!
1=!
1$
1"
0B
0D
0%
0#
#270000
0!
0E
0x
0i
0y
#275000
1!
1E
1x
1i
1y
0M!
1V!
1O!
0`!
1L!
0^!
0b!
0Q!
0T!
0v
0s
0F!
0A!
0;!
0V
0S
0r
0<!
0B!
04
01
0R
0p
0C!
1.!
07!
1D!
1E!
00
0C
0n
0$!
0'!
0(!
0.!
0=!
0D!
0E!
1K!
0$
0A
0"
#280000
0!
0E
0x
0i
0y
#285000
1!
1E
1x
1i
1y
0]!
0W!
0V!
0N!
0L!
1U!
1w
0-!
16!
1W
12!
15
13!
1q
1z
1$!
1.!
00!
14!
17!
19!
1H!
1I!
1J!
1D
1%
#290000
0!
0E
0x
0i
0y
#295000
1!
1E
1x
1i
1y
1_!
1]!
1a!
0O!
15!
1N!
1`!
1R!
1S!
1T!
1v
1u
1t
1<!
02!
1V
1U
1T
1p
03!
1~
0$!
0.!
04!
07!
09!
0I!
0K!
14
13
12
1C
0q
0z
0~
10!
17!
0H!
1K!
1$
0D
0%
#300000
0!
0E
0x
0i
0y
#305000
1!
1E
1x
1i
1y
0_!
0]!
0a!
1O!
05!
0`!
0R!
0S!
0u
0t
12!
0U
0T
13!
03
02
1q
1z
1~
00!
07!
1H!
0K!
1D
1%
#310000
0!
0E
0x
0i
0y
#315000
1!
1E
1x
1i
1y
1_!
1M!
0O!
0N!
1R!
0U!
0w
1t
0<!
02!
1"!
0W
1T
0p
1#!
03!
0~
1$!
1.!
14!
17!
19!
1I!
1K!
05
12
0C
0q
1o
10!
07!
0z
1~
0$!
1%!
0.!
09!
1G!
0H!
0I!
0J!
0K!
0$
0D
1B
0%
1#
#320000
0!
0E
0x
0i
0y
#325000
1!
1E
1x
1i
1y
0_!
1\!
1O!
15!
1Q!
0R!
0T!
0v
0t
1s
12!
1-!
1A!
0V
0T
1S
1B!
1;!
13!
04
02
11
1q
1$!
0%!
1'!
00!
04!
17!
19!
1@!
1E!
1J!
1D
1%
#330000
0!
0E
0x
0i
0y
#335000
1!
1E
1x
1i
1y
1]!
0\!
1W!
0O!
05!
1N!
1`!
1^!
1b!
1T!
1v
1F!
06!
1V
1r
0"!
02!
1<!
1C!
14
1R
1n
1p
0~
1(!
07!
09!
0@!
0E!
0G!
0J!
03!
0#!
10
1A
1C
0o
0q
10!
17!
1=!
1$
1"
0B
0D
0%
0#
#340000
0!
0E
0x
0i
0y
#345000
1!
1E
1x
1i
1y
0M!
1V!
1O!
0`!
1L!
0^!
0b!
0Q!
0T!
0v
0s
0F!
0A!
0;!
0V
0S
0r
0<!
0B!
04
01
0R
0p
0C!
1.!
07!
1D!
1E!
00
0C
0n
0$!
0'!
0(!
0.!
0=!
0D!
0E!
1K!
0$
0A
0"
#350000
0!
0E
0x
0i
0y
#355000
1!
1E
1x
1i
1y
0]!
0W!
0V!
0N!
0L!
1U!
1w
0-!
16!
1W
12!
15
13!
1q
1z
1$!
1.!
00!
14!
17!
19!
1H!
1I!
1J!
1D
1%
#360000
0!
0E
0x
0i
0y
#365000
1!
1E
1x
1i
1y
1_!
1]!
1a!
0O!
15!
1N!
1`!
1R!
1S!
1T!
1v
1u
1t
1<!
02!
1V
1U
1T
1p
03!
1~
0$!
0.!
04!
07!
09!
0I!
0K!
14
13
12
1C
0q
0z
0~
10!
17!
0H!
1K!
1$
0D
0%
#370000
0!
0E
0x
0i
0y
#375000
1!
1E
1x
1i
1y
0_!
0]!
0a!
1O!
05!
0`!
0R!
0S!
0u
0t
12!
0U
0T
13!
03
02
1q
1z
1~
00!
07!
1H!
0K!
1D
1%
#380000
0!
0E
0x
0i
0y
#385000
1!
1E
1x
1i
1y
1_!
1M!
0O!
0N!
1R!
0U!
0w
1t
0<!
02!
1"!
0W
1T
0p
1#!
03!
0~
1$!
1.!
14!
17!
19!
1I!
1K!
05
12
0C
0q
1o
10!
07!
0z
1~
0$!
1%!
0.!
09!
1G!
0H!
0I!
0J!
0K!
0$
0D
1B
0%
1#
#390000
0!
0E
0x
0i
0y
#395000
1!
1E
1x
1i
1y
0_!
1\!
1O!
15!
1Q!
0R!
0T!
0v
0t
1s
12!
1-!
1A!
0V
0T
1S
1B!
1;!
13!
04
02
11
1q
1$!
0%!
1'!
00!
04!
17!
19!
1@!
1E!
1J!
1D
1%
#400000
0!
0E
0x
0i
0y
#405000
1!
1E
1x
1i
1y
1]!
0\!
1W!
0O!
05!
1N!
1`!
1^!
1b!
1T!
1v
1F!
06!
1V
1r
0"!
02!
1<!
1C!
14
1R
1n
1p
0~
1(!
07!
09!
0@!
0E!
0G!
0J!
03!
0#!
10
1A
1C
0o
0q
10!
17!
1=!
1$
1"
0B
0D
0%
0#
#410000
0!
0E
0x
0i
0y
#415000
1!
1E
1x
1i
1y
0M!
1V!
1O!
0`!
1L!
0^!
0b!
0Q!
0T!
0v
0s
0F!
0A!
0;!
0V
0S
0r
0<!
0B!
04
01
0R
0p
0C!
1.!
07!
1D!
1E!
00
0C
0n
0$!
0'!
0(!
0.!
0=!
0D!
0E!
1K!
0$
0A
0"
#420000
0!
0E
0x
0i
0y
#425000
1!
1E
1x
1i
1y
0]!
0W!
0V!
0N!
0L!
1U!
1w
0-!
16!
1W
12!
15
13!
1q
1z
1$!
1.!
00!
14!
17!
19!
1H!
1I!
1J!
1D
1%
#430000
0!
0E
0x
0i
0y
#435000
1!
1E
1x
1i
1y
1_!
1]!
1a!
0O!
15!
1N!
1`!
1R!
1S!
1T!
1v
1u
1t
1<!
02!
1V
1U
1T
1p
03!
1~
0$!
0.!
04!
07!
09!
0I!
0K!
14
13
12
1C
0q
0z
0~
10!
17!
0H!
1K!
1$
0D
0%
#440000
0!
0E
0x
0i
0y
#445000
1!
1E
1x
1i
1y
0_!
0]!
0a!
1O!
05!
0`!
0R!
0S!
0u
0t
12!
0U
0T
13!
03
02
1q
1z
1~
00!
07!
1H!
0K!
1D
1%
#450000
0!
0E
0x
0i
0y
#455000
1!
1E
1x
1i
1y
1_!
1M!
0O!
0N!
1R!
0U!
0w
1t
0<!
02!
1"!
0W
1T
0p
1#!
03!
0~
1$!
1.!
14!
17!
19!
1I!
1K!
05
12
0C
0q
1o
10!
07!
0z
1~
0$!
1%!
0.!
09!
1G!
0H!
0I!
0J!
0K!
0$
0D
1B
0%
1#
#460000
0!
0E
0x
0i
0y
#465000
1!
1E
1x
1i
1y
0_!
1\!
1O!
15!
1Q!
0R!
0T!
0v
0t
1s
12!
1-!
1A!
0V
0T
1S
1B!
1;!
13!
04
02
11
1q
1$!
0%!
1'!
00!
04!
17!
19!
1@!
1E!
1J!
1D
1%
#470000
0!
0E
0x
0i
0y
#475000
1!
1E
1x
1i
1y
1]!
0\!
1W!
0O!
05!
1N!
1`!
1^!
1b!
1T!
1v
1F!
06!
1V
1r
0"!
02!
1<!
1C!
14
1R
1n
1p
0~
1(!
07!
09!
0@!
0E!
0G!
0J!
03!
0#!
10
1A
1C
0o
0q
10!
17!
1=!
1$
1"
0B
0D
0%
0#
#480000
0!
0E
0x
0i
0y
#485000
1!
1E
1x
1i
1y
0M!
1V!
1O!
0`!
1L!
0^!
0b!
0Q!
0T!
0v
0s
0F!
0A!
0;!
0V
0S
0r
0<!
0B!
04
01
0R
0p
0C!
1.!
07!
1D!
1E!
00
0C
0n
0$!
0'!
0(!
0.!
0=!
0D!
0E!
1K!
0$
0A
0"
#490000
0!
0E
0x
0i
0y
#495000
1!
1E
1x
1i
1y
0]!
0W!
0V!
0N!
0L!
1U!
1w
0-!
16!
1W
12!
15
13!
1q
1z
1$!
1.!
00!
14!
17!
19!
1H!
1I!
1J!
1D
1%
#500000
0!
0E
0x
0i
0y
#505000
1!
1E
1x
1i
1y
1_!
1]!
1a!
0O!
15!
1N!
1`!
1R!
1S!
1T!
1v
1u
1t
1<!
02!
1V
1U
1T
1p
03!
1~
0$!
0.!
04!
07!
09!
0I!
0K!
14
13
12
1C
0q
0z
0~
10!
17!
0H!
1K!
1$
0D
0%
#510000
0!
0E
0x
0i
0y
#515000
1!
1E
1x
1i
1y
0_!
0]!
0a!
1O!
05!
0`!
0R!
0S!
0u
0t
12!
0U
0T
13!
03
02
1q
1z
1~
00!
07!
1H!
0K!
1D
1%
#520000
0!
0E
0x
0i
0y
#525000
1!
1E
1x
1i
1y
1_!
1M!
0O!
0N!
1R!
0U!
0w
1t
0<!
02!
1"!
0W
1T
0p
1#!
03!
0~
1$!
1.!
14!
17!
19!
1I!
1K!
05
12
0C
0q
1o
10!
07!
0z
1~
0$!
1%!
0.!
09!
1G!
0H!
0I!
0J!
0K!
0$
0D
1B
0%
1#
#530000
0!
0E
0x
0i
0y
#535000
1!
1E
1x
1i
1y
0_!
1\!
1O!
15!
1Q!
0R!
0T!
0v
0t
1s
12!
1-!
1A!
0V
0T
1S
1B!
1;!
13!
04
02
11
1q
1$!
0%!
1'!
00!
04!
17!
19!
1@!
1E!
1J!
1D
1%
#540000
0!
0E
0x
0i
0y
#545000
1!
1E
1x
1i
1y
1]!
0\!
1W!
0O!
05!
1N!
1`!
1^!
1b!
1T!
1v
1F!
06!
1V
1r
0"!
02!
1<!
1C!
14
1R
1n
1p
0~
1(!
07!
09!
0@!
0E!
0G!
0J!
03!
0#!
10
1A
1C
0o
0q
10!
17!
1=!
1$
1"
0B
0D
0%
0#
#550000
0!
0E
0x
0i
0y
#555000
1!
1E
1x
1i
1y
0M!
1V!
1O!
0`!
1L!
0^!
0b!
0Q!
0T!
0v
0s
0F!
0A!
0;!
0V
0S
0r
0<!
0B!
04
01
0R
0p
0C!
1.!
07!
1D!
1E!
00
0C
0n
0$!
0'!
0(!
0.!
0=!
0D!
0E!
1K!
0$
0A
0"
#560000
0!
0E
0x
0i
0y
#565000
1!
1E
1x
1i
1y
0]!
0W!
0V!
0N!
0L!
1U!
1w
0-!
16!
1W
12!
15
13!
1q
1z
1$!
1.!
00!
14!
17!
19!
1H!
1I!
1J!
1D
1%
#570000
0!
0E
0x
0i
0y
#575000
1!
1E
1x
1i
1y
1_!
1]!
1a!
0O!
15!
1N!
1`!
1R!
1S!
1T!
1v
1u
1t
1<!
02!
1V
1U
1T
1p
03!
1~
0$!
0.!
04!
07!
09!
0I!
0K!
14
13
12
1C
0q
0z
0~
10!
17!
0H!
1K!
1$
0D
0%
#580000
0!
0E
0x
0i
0y
#585000
1!
1E
1x
1i
1y
0_!
0]!
0a!
1O!
05!
0`!
0R!
0S!
0u
0t
12!
0U
0T
13!
03
02
1q
1z
1~
00!
07!
1H!
0K!
1D
1%
#590000
0!
0E
0x
0i
0y
