Practica_3/simulation/qsim/P3_OAC.msim.vcd
$comment
	File created using the following command:
		vcd file P3_OAC.msim.vcd -direction
$end
$date
	Mon Mar 20 02:23:12 2023
$end
$version
	ModelSim Version 2020.1
$end
$timescale
	1ps
$end

$scope module p3_oac_vhd_vec_tst $end
$var wire 1 ! CLK $end
$var wire 1 " edoPres [2] $end
$var wire 1 # edoPres [1] $end
$var wire 1 $ edoPres [0] $end
$var wire 1 % entradaA [2] $end
$var wire 1 & entradaA [1] $end
$var wire 1 ' entradaA [0] $end
$var wire 1 ( liga [2] $end
$var wire 1 ) liga [1] $end
$var wire 1 * liga [0] $end
$var wire 1 + RESET $end
$var wire 1 , salidas [2] $end
$var wire 1 - salidas [1] $end
$var wire 1 . salidas [0] $end

$scope module i1 $end
$var wire 1 / gnd $end
$var wire 1 0 vcc $end
$var wire 1 1 unknown $end
$var wire 1 2 devoe $end
$var wire 1 3 devclrn $end
$var wire 1 4 devpor $end
$var wire 1 5 ww_devoe $end
$var wire 1 6 ww_devclrn $end
$var wire 1 7 ww_devpor $end
$var wire 1 8 ww_edoPres [2] $end
$var wire 1 9 ww_edoPres [1] $end
$var wire 1 : ww_edoPres [0] $end
$var wire 1 ; ww_CLK $end
$var wire 1 < ww_RESET $end
$var wire 1 = ww_entradaA [2] $end
$var wire 1 > ww_entradaA [1] $end
$var wire 1 ? ww_entradaA [0] $end
$var wire 1 @ ww_liga [2] $end
$var wire 1 A ww_liga [1] $end
$var wire 1 B ww_liga [0] $end
$var wire 1 C ww_salidas [2] $end
$var wire 1 D ww_salidas [1] $end
$var wire 1 E ww_salidas [0] $end
$var wire 1 F \~QUARTUS_CREATED_ADC1~_CHSEL_bus\ [4] $end
$var wire 1 G \~QUARTUS_CREATED_ADC1~_CHSEL_bus\ [3] $end
$var wire 1 H \~QUARTUS_CREATED_ADC1~_CHSEL_bus\ [2] $end
$var wire 1 I \~QUARTUS_CREATED_ADC1~_CHSEL_bus\ [1] $end
$var wire 1 J \~QUARTUS_CREATED_ADC1~_CHSEL_bus\ [0] $end
$var wire 1 K \~QUARTUS_CREATED_ADC2~_CHSEL_bus\ [4] $end
$var wire 1 L \~QUARTUS_CREATED_ADC2~_CHSEL_bus\ [3] $end
$var wire 1 M \~QUARTUS_CREATED_ADC2~_CHSEL_bus\ [2] $end
$var wire 1 N \~QUARTUS_CREATED_ADC2~_CHSEL_bus\ [1] $end
$var wire 1 O \~QUARTUS_CREATED_ADC2~_CHSEL_bus\ [0] $end
$var wire 1 P \CLK~inputclkctrl_INCLK_bus\ [3] $end
$var wire 1 Q \CLK~inputclkctrl_INCLK_bus\ [2] $end
$var wire 1 R \CLK~inputclkctrl_INCLK_bus\ [1] $end
$var wire 1 S \CLK~inputclkctrl_INCLK_bus\ [0] $end
$var wire 1 T \~QUARTUS_CREATED_GND~I_combout\ $end
$var wire 1 U \~QUARTUS_CREATED_UNVM~~busy\ $end
$var wire 1 V \~QUARTUS_CREATED_ADC1~~eoc\ $end
$var wire 1 W \~QUARTUS_CREATED_ADC2~~eoc\ $end
$var wire 1 X \edoPres[2]~output_o\ $end
$var wire 1 Y \edoPres[1]~output_o\ $end
$var wire 1 Z \edoPres[0]~output_o\ $end
$var wire 1 [ \liga[2]~output_o\ $end
$var wire 1 \ \liga[1]~output_o\ $end
$var wire 1 ] \liga[0]~output_o\ $end
$var wire 1 ^ \salidas[2]~output_o\ $end
$var wire 1 _ \salidas[1]~output_o\ $end
$var wire 1 ` \salidas[0]~output_o\ $end
$var wire 1 a \CLK~input_o\ $end
$var wire 1 b \CLK~inputclkctrl_outclk\ $end
$var wire 1 c \entradaA[2]~input_o\ $end
$var wire 1 d \entradaA[1]~input_o\ $end
$var wire 1 e \inst2|Mux2~0_combout\ $end
$var wire 1 f \entradaA[0]~input_o\ $end
$var wire 1 g \inst2|Mux2~1_combout\ $end
$var wire 1 h \inst2|Mux2~2_combout\ $end
$var wire 1 i \RESET~input_o\ $end
$var wire 1 j \inst2|Mux1~0_combout\ $end
$var wire 1 k \inst2|Mux1~1_combout\ $end
$var wire 1 l \inst2|Mux1~2_combout\ $end
$var wire 1 m \inst2|Mux0~0_combout\ $end
$var wire 1 n \inst2|Mux0~1_combout\ $end
$var wire 1 o \inst2|Mux0~2_combout\ $end
$var wire 1 p \inst6|internal_value[2]~0_combout\ $end
$var wire 1 q \inst2|Mux3~1_combout\ $end
$var wire 1 r \inst2|Mux3~0_combout\ $end
$var wire 1 s \inst2|Mux3~2_combout\ $end
$var wire 1 t \inst2|Mux4~0_combout\ $end
$var wire 1 u \inst2|Mux5~0_combout\ $end
$var wire 1 v \inst2|Mux5~1_combout\ $end
$var wire 1 w \inst6|internal_value\ [2] $end
$var wire 1 x \inst6|internal_value\ [1] $end
$var wire 1 y \inst6|internal_value\ [0] $end
$var wire 1 z \inst2|ALT_INV_Mux4~0_combout\ $end
$var wire 1 { \inst2|ALT_INV_Mux0~2_combout\ $end
$upscope $end
$upscope $end
$enddefinitions $end
#0
$dumpvars
0!
1+
0/
10
x1
12
13
14
15
16
17
0;
1<
0T
zU
zV
zW
0X
0Y
0Z
0[
0\
1]
1^
1_
1`
0a
0b
1c
0d
1e
0f
1g
1h
1i
0j
0k
0l
0m
1n
1o
0p
1q
0r
1s
0t
1u
1v
1z
0{
1%
0&
0'
08
09
0:
1=
0>
0?
0@
0A
1B
1C
1D
1E
0w
0x
0y
1P
1Q
1R
0S
0F
0G
0H
0I
0J
0K
0L
0M
0N
0O
0"
0#
0$
0(
0)
1*
1,
1-
1.
$end
#5000
1!
1;
1a
1S
1b
1y
1Z
0g
0s
0u
1:
0^
0v
1$
0C
0`
0,
0E
0.
#10000
0!
0;
0a
0S
0b
#15000
1!
1;
1a
1S
1b
#20000
0!
0;
0a
0S
0b
#25000
1!
1;
1a
1S
1b
#30000
0!
0;
0a
0S
0b
#35000
1!
1;
1a
1S
1b
#40000
0!
0;
0a
0S
0b
#45000
1!
1;
1a
1S
1b
#50000
0!
0;
0a
0S
0b
#55000
1!
1;
1a
1S
1b
#60000
0!
0;
0a
0S
0b
#65000
1!
1;
1a
1S
1b
#70000
0!
0;
0a
0S
0b
#75000
1!
1;
1a
1S
1b
#80000
0!
0;
0a
0S
0b
#85000
1!
1;
1a
1S
1b
#90000
0!
0;
0a
0S
0b
#95000
1!
1;
1a
1S
1b
#100000
0!
0;
0a
0S
0b
#105000
1!
1;
1a
1S
1b
#110000
0!
0;
0a
0S
0b
#115000
1!
1;
1a
1S
1b
#120000
0!
0;
0a
0S
0b
#125000
1!
1;
1a
1S
1b
#130000
0!
0;
0a
0S
0b
#135000
1!
1;
1a
1S
1b
#140000
0!
0;
0a
0S
0b
#145000
1!
1;
1a
1S
1b
#150000
0!
0;
0a
0S
0b
#155000
1!
1;
1a
1S
1b
#160000
0!
0;
0a
0S
0b
#165000
1!
1;
1a
1S
1b
#170000
0!
0;
0a
0S
0b
#175000
1!
1;
1a
1S
1b
#180000
0!
0;
0a
0S
0b
#185000
1!
1;
1a
1S
1b
#190000
0!
0;
0a
0S
0b
#195000
1!
1;
1a
1S
1b
#200000
0!
0;
0a
0S
0b
#205000
1!
1;
1a
1S
1b
#210000
0!
0;
0a
0S
0b
#215000
1!
1;
1a
1S
1b
#220000
0!
0;
0a
0S
0b
#225000
1!
1;
1a
1S
1b
#230000
0!
0;
0a
0S
0b
#235000
1!
1;
1a
1S
1b
#240000
0!
0;
0a
0S
0b
#245000
1!
1;
1a
1S
1b
#250000
0!
0;
0a
0S
0b
#255000
1!
1;
1a
1S
1b
#260000
0!
0;
0a
0S
0b
#265000
1!
1;
1a
1S
1b
#270000
0!
0;
0a
0S
0b
#275000
1!
1;
1a
1S
1b
#280000
0!
0;
0a
0S
0b
#285000
1!
1;
1a
1S
1b
#290000
0!
0;
0a
0S
0b
#295000
1!
1;
1a
1S
1b
#300000
0!
0;
0a
0S
0b
#305000
1!
1;
1a
1S
1b
#310000
0!
0;
0a
0S
0b
#315000
1!
1;
1a
1S
1b
#320000
0!
0;
0a
0S
0b
#325000
1!
1;
1a
1S
1b
#330000
0!
0;
0a
0S
0b
#335000
1!
1;
1a
1S
1b
#340000
0!
0;
0a
0S
0b
#345000
1!
1;
1a
1S
1b
#350000
0!
0;
0a
0S
0b
#355000
1!
1;
1a
1S
1b
#360000
0!
0;
0a
0S
0b
#365000
1!
1;
1a
1S
1b
#370000
0!
0;
0a
0S
0b
#375000
1!
1;
1a
1S
1b
#380000
0!
0;
0a
0S
0b
#385000
1!
1;
1a
1S
1b
#390000
0!
0;
0a
0S
0b
#395000
1!
1;
1a
1S
1b
#400000
0!
0;
0a
0S
0b
#405000
1!
1;
1a
1S
1b
#410000
0!
0;
0a
0S
0b
#415000
1!
1;
1a
1S
1b
#420000
0!
0;
0a
0S
0b
#425000
1!
1;
1a
1S
1b
#430000
0!
0;
0a
0S
0b
#435000
1!
1;
1a
1S
1b
#440000
0!
0;
0a
0S
0b
#445000
1!
1;
1a
1S
1b
#450000
0!
0;
0a
0S
0b
#455000
1!
1;
1a
1S
1b
#460000
0!
0;
0a
0S
0b
#465000
1!
1;
1a
1S
1b
#470000
0!
0;
0a
0S
0b
#475000
1!
1;
1a
1S
1b
#480000
0!
0;
0a
0S
0b
#485000
1!
1;
1a
1S
1b
#490000
0!
0;
0a
0S
0b
#495000
1!
1;
1a
1S
1b
#500000
0!
0;
0a
0S
0b
#505000
1!
1;
1a
1S
1b
#510000
0!
0;
0a
0S
0b
#515000
1!
1;
1a
1S
1b
#520000
0!
0;
0a
0S
0b
#525000
1!
1;
1a
1S
1b
#530000
0!
0;
0a
0S
0b
#535000
1!
1;
1a
1S
1b
#540000
0!
0;
0a
0S
0b
#545000
1!
1;
1a
1S
1b
#550000
0!
0;
0a
0S
0b
#555000
1!
1;
1a
1S
1b
#560000
0!
0;
0a
0S
0b
#565000
1!
1;
1a
1S
1b
#570000
0!
0;
0a
0S
0b
#575000
1!
1;
1a
1S
1b
#580000
0!
0;
0a
0S
0b
#585000
1!
1;
1a
1S
1b
#590000
0!
0;
0a
0S
0b
#595000
1!
1;
1a
1S
1b
#600000
0!
0;
0a
0S
0b
#605000
1!
1;
1a
1S
1b
#610000
0!
0;
0a
0S
0b
#615000
1!
1;
1a
1S
1b
#620000
0!
0;
0a
0S
0b
#625000
1!
1;
1a
1S
1b
#630000
0!
0;
0a
0S
0b
#635000
1!
1;
1a
1S
1b
#640000
0!
0;
0a
0S
0b
#645000
1!
1;
1a
1S
1b
#650000
0!
0;
0a
0S
0b
#655000
1!
1;
1a
1S
1b
#660000
0!
0;
0a
0S
0b
#665000
1!
1;
1a
1S
1b
#670000
0!
0;
0a
0S
0b
#675000
1!
1;
1a
1S
1b
#680000
0!
0;
0a
0S
0b
#685000
1!
1;
1a
1S
1b
#690000
0!
0;
0a
0S
0b
#695000
1!
1;
1a
1S
1b
#700000
0!
0;
0a
0S
0b
#705000
1!
1;
1a
1S
1b
#710000
0!
0;
0a
0S
0b
#715000
1!
1;
1a
1S
1b
#720000
0!
0;
0a
0S
0b
#725000
1!
1;
1a
1S
1b
#730000
0!
0;
0a
0S
0b
#735000
1!
1;
1a
1S
1b
#740000
0!
0;
0a
0S
0b
#745000
1!
1;
1a
1S
1b
#750000
0!
0;
0a
0S
0b
#755000
1!
1;
1a
1S
1b
#760000
0!
0;
0a
0S
0b
#765000
1!
1;
1a
1S
1b
#770000
0!
0;
0a
0S
0b
#775000
1!
1;
1a
1S
1b
#780000
0!
0;
0a
0S
0b
#785000
1!
1;
1a
1S
1b
#790000
0!
0;
0a
0S
0b
#795000
1!
1;
1a
1S
1b
#800000
0!
0;
0a
0S
0b
#805000
1!
1;
1a
1S
1b
#810000
0!
0;
0a
0S
0b
#815000
1!
1;
1a
1S
1b
#820000
0!
0;
0a
0S
0b
#825000
1!
1;
1a
1S
1b
#830000
0!
0;
0a
0S
0b
#835000
1!
1;
1a
1S
1b
#840000
0!
0;
0a
0S
0b
#845000
1!
1;
1a
1S
1b
#850000
0!
0;
0a
0S
0b
#855000
1!
1;
1a
1S
1b
#860000
0!
0;
0a
0S
0b
#865000
1!
1;
1a
1S
1b
#870000
0!
0;
0a
0S
0b
#875000
1!
1;
1a
1S
1b
#880000
0!
0;
0a
0S
0b
#885000
1!
1;
1a
1S
1b
#890000
0!
0;
0a
0S
0b
#895000
1!
1;
1a
1S
1b
#900000
0!
0;
0a
0S
0b
#905000
1!
1;
1a
1S
1b
#910000
0!
0;
0a
0S
0b
#915000
1!
1;
1a
1S
1b
#920000
0!
0;
0a
0S
0b
#925000
1!
1;
1a
1S
1b
#930000
0!
0;
0a
0S
0b
#935000
1!
1;
1a
1S
1b
#940000
0!
0;
0a
0S
0b
#945000
1!
1;
1a
1S
1b
#950000
0!
0;
0a
0S
0b
#955000
1!
1;
1a
1S
1b
#960000
0!
0;
0a
0S
0b
#965000
1!
1;
1a
1S
1b
#970000
0!
0;
0a
0S
0b
#975000
1!
1;
1a
1S
1b
#980000
0!
0;
0a
0S
0b
#985000
1!
1;
1a
1S
1b
#990000
0!
0;
0a
0S
0b
#995000
1!
1;
1a
1S
1b
