Practica_5/simulation/qsim/Practica5.msim.vcd
$comment
	File created using the following command:
		vcd file Practica5.msim.vcd -direction
$end
$date
	Sun May 07 14:27:07 2023
$end
$version
	ModelSim Version 2020.1
$end
$timescale
	1ps
$end

$scope module practica5_vhd_vec_tst $end
$var wire 1 ! clk $end
$var wire 1 " DIR [2] $end
$var wire 1 # DIR [1] $end
$var wire 1 $ DIR [0] $end
$var wire 1 % reset $end
$var wire 1 & salida [3] $end
$var wire 1 ' salida [2] $end
$var wire 1 ( salida [1] $end
$var wire 1 ) salida [0] $end
$var wire 1 * V $end
$var wire 1 + W $end
$var wire 1 , X $end
$var wire 1 - Z $end

$scope module i1 $end
$var wire 1 . gnd $end
$var wire 1 / vcc $end
$var wire 1 0 unknown $end
$var wire 1 1 devoe $end
$var wire 1 2 devclrn $end
$var wire 1 3 devpor $end
$var wire 1 4 ww_devoe $end
$var wire 1 5 ww_devclrn $end
$var wire 1 6 ww_devpor $end
$var wire 1 7 ww_DIR [2] $end
$var wire 1 8 ww_DIR [1] $end
$var wire 1 9 ww_DIR [0] $end
$var wire 1 : ww_clk $end
$var wire 1 ; ww_reset $end
$var wire 1 < ww_V $end
$var wire 1 = ww_W $end
$var wire 1 > ww_X $end
$var wire 1 ? ww_Z $end
$var wire 1 @ ww_salida [3] $end
$var wire 1 A ww_salida [2] $end
$var wire 1 B ww_salida [1] $end
$var wire 1 C ww_salida [0] $end
$var wire 1 D \~QUARTUS_CREATED_ADC1~_CHSEL_bus\ [4] $end
$var wire 1 E \~QUARTUS_CREATED_ADC1~_CHSEL_bus\ [3] $end
$var wire 1 F \~QUARTUS_CREATED_ADC1~_CHSEL_bus\ [2] $end
$var wire 1 G \~QUARTUS_CREATED_ADC1~_CHSEL_bus\ [1] $end
$var wire 1 H \~QUARTUS_CREATED_ADC1~_CHSEL_bus\ [0] $end
$var wire 1 I \~QUARTUS_CREATED_ADC2~_CHSEL_bus\ [4] $end
$var wire 1 J \~QUARTUS_CREATED_ADC2~_CHSEL_bus\ [3] $end
$var wire 1 K \~QUARTUS_CREATED_ADC2~_CHSEL_bus\ [2] $end
$var wire 1 L \~QUARTUS_CREATED_ADC2~_CHSEL_bus\ [1] $end
$var wire 1 M \~QUARTUS_CREATED_ADC2~_CHSEL_bus\ [0] $end
$var wire 1 N \clk~inputclkctrl_INCLK_bus\ [3] $end
$var wire 1 O \clk~inputclkctrl_INCLK_bus\ [2] $end
$var wire 1 P \clk~inputclkctrl_INCLK_bus\ [1] $end
$var wire 1 Q \clk~inputclkctrl_INCLK_bus\ [0] $end
$var wire 1 R \~QUARTUS_CREATED_GND~I_combout\ $end
$var wire 1 S \~QUARTUS_CREATED_UNVM~~busy\ $end
$var wire 1 T \~QUARTUS_CREATED_ADC1~~eoc\ $end
$var wire 1 U \~QUARTUS_CREATED_ADC2~~eoc\ $end
$var wire 1 V \DIR[2]~output_o\ $end
$var wire 1 W \DIR[1]~output_o\ $end
$var wire 1 X \DIR[0]~output_o\ $end
$var wire 1 Y \salida[3]~output_o\ $end
$var wire 1 Z \salida[2]~output_o\ $end
$var wire 1 [ \salida[1]~output_o\ $end
$var wire 1 \ \salida[0]~output_o\ $end
$var wire 1 ] \clk~input_o\ $end
$var wire 1 ^ \clk~inputclkctrl_outclk\ $end
$var wire 1 _ \W~input_o\ $end
$var wire 1 ` \Z~input_o\ $end
$var wire 1 a \inst13|salida~1_combout\ $end
$var wire 1 b \V~input_o\ $end
$var wire 1 c \X~input_o\ $end
$var wire 1 d \inst13|salida~0_combout\ $end
$var wire 1 e \inst13|salida~2_combout\ $end
$var wire 1 f \inst|inst2|salida[1]~1_combout\ $end
$var wire 1 g \reset~input_o\ $end
$var wire 1 h \inst|inst2|salida[0]~2_combout\ $end
$var wire 1 i \inst|inst2|salida[2]~0_combout\ $end
$var wire 1 j \inst16|Mux11~0_combout\ $end
$var wire 1 k \inst16|Mux8~0_combout\ $end
$var wire 1 l \inst16|Mux9~0_combout\ $end
$var wire 1 m \inst16|Mux10~0_combout\ $end
$var wire 1 n \inst|inst|internal_value\ [2] $end
$var wire 1 o \inst|inst|internal_value\ [1] $end
$var wire 1 p \inst|inst|internal_value\ [0] $end
$var wire 1 q \inst16|ALT_INV_Mux10~0_combout\ $end
$var wire 1 r \inst16|ALT_INV_Mux9~0_combout\ $end
$upscope $end
$upscope $end
$enddefinitions $end
#0
$dumpvars
0!
1%
0*
0+
1,
0-
0.
1/
x0
11
12
13
14
15
16
0:
1;
0<
0=
1>
0?
0R
zS
zT
zU
0V
0W
0X
0Y
0Z
1[
1\
0]
0^
0_
0`
0a
0b
1c
0d
0e
0f
1g
1h
0i
0j
0k
0l
0m
1q
1r
07
08
09
0@
0A
1B
1C
0n
0o
0p
1N
1O
1P
0Q
0D
0E
0F
0G
0H
0I
0J
0K
0L
0M
0"
0#
0$
0&
0'
1(
1)
$end
#5000
1!
1:
1]
1Q
1^
1p
1X
1d
1f
1i
1j
19
1Y
1e
1$
1@
0h
0i
1l
1m
1&
0q
0r
0[
0\
0B
0C
0)
0(
#10000
0!
0:
0]
0Q
0^
#15000
1!
1:
1]
1Q
1^
1o
0p
0X
1W
0d
0e
1h
1k
0l
0m
1q
1r
09
18
1Z
0f
1i
0k
1m
0$
1#
1[
1\
0q
1A
0Z
1B
1C
1'
0\
0A
1)
1(
0C
0'
0)
#20000
0!
0:
0]
0Q
0^
#25000
1!
1:
1]
1Q
1^
0o
1p
1n
1V
1X
0W
1f
0i
0m
1q
17
19
08
1$
0#
1"
1\
1C
1)
#30000
0!
0:
0]
0Q
0^
#35000
1!
1:
1]
1Q
1^
1o
0n
0V
1W
1d
0f
0h
1i
0j
1k
1l
0r
07
18
1Z
0Y
1#
0"
0[
1A
0@
0B
1'
0&
0(
#40000
0!
0:
0]
0Q
0^
#45000
1!
1:
1]
1Q
1^
0o
0p
1n
1V
0X
0W
0d
1e
1h
1j
0l
1r
17
09
08
1Y
1f
0h
0i
0e
0$
0#
1"
1[
1@
0f
1h
1i
1B
1&
1(
#50000
0!
0:
0]
0Q
0^
#55000
1!
1:
1]
1Q
1^
1p
1X
1f
0i
0k
19
0Z
1$
0A
0'
#60000
0!
0:
0]
0Q
0^
#65000
1!
1:
1]
1Q
1^
1o
0n
0V
1W
1d
0f
0h
1i
0j
1k
1l
0r
07
18
1Z
0Y
1#
0"
0[
1A
0@
0B
1'
0&
0(
#70000
0!
0:
0]
0Q
0^
#75000
1!
1:
1]
1Q
1^
0o
0p
1n
1V
0X
0W
0d
1e
1h
1j
0l
1r
17
09
08
1Y
1f
0h
0i
0e
0$
0#
1"
1[
1@
0f
1h
1i
1B
1&
1(
#80000
0!
0:
0]
0Q
0^
#85000
1!
1:
1]
1Q
1^
1p
1X
1f
0i
0k
19
0Z
1$
0A
0'
#90000
0!
0:
0]
0Q
0^
#95000
1!
1:
1]
1Q
1^
1o
0n
0V
1W
1d
0f
0h
1i
0j
1k
1l
0r
07
18
1Z
0Y
1#
0"
0[
1A
0@
0B
1'
0&
0(
#100000
0!
0:
0]
0Q
0^
#105000
1!
1:
1]
1Q
1^
0o
0p
1n
1V
0X
0W
0d
1e
1h
1j
0l
1r
17
09
08
1Y
1f
0h
0i
0e
0$
0#
1"
1[
1@
0f
1h
1i
1B
1&
1(
#110000
0!
0:
0]
0Q
0^
#115000
1!
1:
1]
1Q
1^
1p
1X
1f
0i
0k
19
0Z
1$
0A
0'
#120000
0!
0:
0]
0Q
0^
#125000
1!
1:
1]
1Q
1^
1o
0n
0V
1W
1d
0f
0h
1i
0j
1k
1l
0r
07
18
1Z
0Y
1#
0"
0[
1A
0@
0B
1'
0&
0(
#130000
0!
0:
0]
0Q
0^
#135000
1!
1:
1]
1Q
1^
0o
0p
1n
1V
0X
0W
0d
1e
1h
1j
0l
1r
17
09
08
1Y
1f
0h
0i
0e
0$
0#
1"
1[
1@
0f
1h
1i
1B
1&
1(
#140000
0!
0:
0]
0Q
0^
#145000
1!
1:
1]
1Q
1^
1p
1X
1f
0i
0k
19
0Z
1$
0A
0'
#150000
0!
0:
0]
0Q
0^
#155000
1!
1:
1]
1Q
1^
1o
0n
0V
1W
1d
0f
0h
1i
0j
1k
1l
0r
07
18
1Z
0Y
1#
0"
0[
1A
0@
0B
1'
0&
0(
#160000
0!
0:
0]
0Q
0^
#165000
1!
1:
1]
1Q
1^
0o
0p
1n
1V
0X
0W
0d
1e
1h
1j
0l
1r
17
09
08
1Y
1f
0h
0i
0e
0$
0#
1"
1[
1@
0f
1h
1i
1B
1&
1(
#170000
0!
0:
0]
0Q
0^
#175000
1!
1:
1]
1Q
1^
1p
1X
1f
0i
0k
19
0Z
1$
0A
0'
#180000
0!
0:
0]
0Q
0^
#185000
1!
1:
1]
1Q
1^
1o
0n
0V
1W
1d
0f
0h
1i
0j
1k
1l
0r
07
18
1Z
0Y
1#
0"
0[
1A
0@
0B
1'
0&
0(
#190000
0!
0:
0]
0Q
0^
#195000
1!
1:
1]
1Q
1^
0o
0p
1n
1V
0X
0W
0d
1e
1h
1j
0l
1r
17
09
08
1Y
1f
0h
0i
0e
0$
0#
1"
1[
1@
0f
1h
1i
1B
1&
1(
#200000
0!
0:
0]
0Q
0^
#205000
1!
1:
1]
1Q
1^
1p
1X
1f
0i
0k
19
0Z
1$
0A
0'
#210000
0!
0:
0]
0Q
0^
#215000
1!
1:
1]
1Q
1^
1o
0n
0V
1W
1d
0f
0h
1i
0j
1k
1l
0r
07
18
1Z
0Y
1#
0"
0[
1A
0@
0B
1'
0&
0(
#220000
0!
0:
0]
0Q
0^
#225000
1!
1:
1]
1Q
1^
0o
0p
1n
1V
0X
0W
0d
1e
1h
1j
0l
1r
17
09
08
1Y
1f
0h
0i
0e
0$
0#
1"
1[
1@
0f
1h
1i
1B
1&
1(
#230000
0!
0:
0]
0Q
0^
#235000
1!
1:
1]
1Q
1^
1p
1X
1f
0i
0k
19
0Z
1$
0A
0'
#240000
0!
0:
0]
0Q
0^
#245000
1!
1:
1]
1Q
1^
1o
0n
0V
1W
1d
0f
0h
1i
0j
1k
1l
0r
07
18
1Z
0Y
1#
0"
0[
1A
0@
0B
1'
0&
0(
#250000
0!
0:
0]
0Q
0^
#255000
1!
1:
1]
1Q
1^
0o
0p
1n
1V
0X
0W
0d
1e
1h
1j
0l
1r
17
09
08
1Y
1f
0h
0i
0e
0$
0#
1"
1[
1@
0f
1h
1i
1B
1&
1(
#260000
0!
0:
0]
0Q
0^
#265000
1!
1:
1]
1Q
1^
1p
1X
1f
0i
0k
19
0Z
1$
0A
0'
#270000
0!
0:
0]
0Q
0^
#275000
1!
1:
1]
1Q
1^
1o
0n
0V
1W
1d
0f
0h
1i
0j
1k
1l
0r
07
18
1Z
0Y
1#
0"
0[
1A
0@
0B
1'
0&
0(
#280000
0!
0:
0]
0Q
0^
#285000
1!
1:
1]
1Q
1^
0o
0p
1n
1V
0X
0W
0d
1e
1h
1j
0l
1r
17
09
08
1Y
1f
0h
0i
0e
0$
0#
1"
1[
1@
0f
1h
1i
1B
1&
1(
#290000
0!
0:
0]
0Q
0^
#295000
1!
1:
1]
1Q
1^
1p
1X
1f
0i
0k
19
0Z
1$
0A
0'
#300000
0!
0:
0]
0Q
0^
#305000
1!
1:
1]
1Q
1^
1o
0n
0V
1W
1d
0f
0h
1i
0j
1k
1l
0r
07
18
1Z
0Y
1#
0"
0[
1A
0@
0B
1'
0&
0(
#310000
0!
0:
0]
0Q
0^
#315000
1!
1:
1]
1Q
1^
0o
0p
1n
1V
0X
0W
0d
1e
1h
1j
0l
1r
17
09
08
1Y
1f
0h
0i
0e
0$
0#
1"
1[
1@
0f
1h
1i
1B
1&
1(
#320000
0!
0:
0]
0Q
0^
#325000
1!
1:
1]
1Q
1^
1p
1X
1f
0i
0k
19
0Z
1$
0A
0'
#330000
0!
0:
0]
0Q
0^
#335000
1!
1:
1]
1Q
1^
1o
0n
0V
1W
1d
0f
0h
1i
0j
1k
1l
0r
07
18
1Z
0Y
1#
0"
0[
1A
0@
0B
1'
0&
0(
#340000
0!
0:
0]
0Q
0^
#345000
1!
1:
1]
1Q
1^
0o
0p
1n
1V
0X
0W
0d
1e
1h
1j
0l
1r
17
09
08
1Y
1f
0h
0i
0e
0$
0#
1"
1[
1@
0f
1h
1i
1B
1&
1(
#350000
0!
0:
0]
0Q
0^
#355000
1!
1:
1]
1Q
1^
1p
1X
1f
0i
0k
19
0Z
1$
0A
0'
#360000
0!
0:
0]
0Q
0^
#365000
1!
1:
1]
1Q
1^
1o
0n
0V
1W
1d
0f
0h
1i
0j
1k
1l
0r
07
18
1Z
0Y
1#
0"
0[
1A
0@
0B
1'
0&
0(
#370000
0!
0:
0]
0Q
0^
#375000
1!
1:
1]
1Q
1^
0o
0p
1n
1V
0X
0W
0d
1e
1h
1j
0l
1r
17
09
08
1Y
1f
0h
0i
0e
0$
0#
1"
1[
1@
0f
1h
1i
1B
1&
1(
#380000
0!
0:
0]
0Q
0^
#385000
1!
1:
1]
1Q
1^
1p
1X
1f
0i
0k
19
0Z
1$
0A
0'
#390000
0!
0:
0]
0Q
0^
#395000
1!
1:
1]
1Q
1^
1o
0n
0V
1W
1d
0f
0h
1i
0j
1k
1l
0r
07
18
1Z
0Y
1#
0"
0[
1A
0@
0B
1'
0&
0(
#400000
0!
0:
0]
0Q
0^
#405000
1!
1:
1]
1Q
1^
0o
0p
1n
1V
0X
0W
0d
1e
1h
1j
0l
1r
17
09
08
1Y
1f
0h
0i
0e
0$
0#
1"
1[
1@
0f
1h
1i
1B
1&
1(
#410000
0!
0:
0]
0Q
0^
#415000
1!
1:
1]
1Q
1^
1p
1X
1f
0i
0k
19
0Z
1$
0A
0'
#420000
0!
0:
0]
0Q
0^
#425000
1!
1:
1]
1Q
1^
1o
0n
0V
1W
1d
0f
0h
1i
0j
1k
1l
0r
07
18
1Z
0Y
1#
0"
0[
1A
0@
0B
1'
0&
0(
#430000
0!
0:
0]
0Q
0^
#435000
1!
1:
1]
1Q
1^
0o
0p
1n
1V
0X
0W
0d
1e
1h
1j
0l
1r
17
09
08
1Y
1f
0h
0i
0e
0$
0#
1"
1[
1@
0f
1h
1i
1B
1&
1(
#440000
0!
0:
0]
0Q
0^
#445000
1!
1:
1]
1Q
1^
1p
1X
1f
0i
0k
19
0Z
1$
0A
0'
#450000
0!
0:
0]
0Q
0^
#455000
1!
1:
1]
1Q
1^
1o
0n
0V
1W
1d
0f
0h
1i
0j
1k
1l
0r
07
18
1Z
0Y
1#
0"
0[
1A
0@
0B
1'
0&
0(
#460000
0!
0:
0]
0Q
0^
#465000
1!
1:
1]
1Q
1^
0o
0p
1n
1V
0X
0W
0d
1e
1h
1j
0l
1r
17
09
08
1Y
1f
0h
0i
0e
0$
0#
1"
1[
1@
0f
1h
1i
1B
1&
1(
#470000
0!
0:
0]
0Q
0^
#475000
1!
1:
1]
1Q
1^
1p
1X
1f
0i
0k
19
0Z
1$
0A
0'
#480000
0!
0:
0]
0Q
0^
#485000
1!
1:
1]
1Q
1^
1o
0n
0V
1W
1d
0f
0h
1i
0j
1k
1l
0r
07
18
1Z
0Y
1#
0"
0[
1A
0@
0B
1'
0&
0(
#490000
0!
0:
0]
0Q
0^
#495000
1!
1:
1]
1Q
1^
0o
0p
1n
1V
0X
0W
0d
1e
1h
1j
0l
1r
17
09
08
1Y
1f
0h
0i
0e
0$
0#
1"
1[
1@
0f
1h
1i
1B
1&
1(
#500000
0!
0:
0]
0Q
0^
#505000
1!
1:
1]
1Q
1^
1p
1X
1f
0i
0k
19
0Z
1$
0A
0'
#510000
0!
0:
0]
0Q
0^
#515000
1!
1:
1]
1Q
1^
1o
0n
0V
1W
1d
0f
0h
1i
0j
1k
1l
0r
07
18
1Z
0Y
1#
0"
0[
1A
0@
0B
1'
0&
0(
#520000
0!
0:
0]
0Q
0^
#525000
1!
1:
1]
1Q
1^
0o
0p
1n
1V
0X
0W
0d
1e
1h
1j
0l
1r
17
09
08
1Y
1f
0h
0i
0e
0$
0#
1"
1[
1@
0f
1h
1i
1B
1&
1(
#530000
0!
0:
0]
0Q
0^
#535000
1!
1:
1]
1Q
1^
1p
1X
1f
0i
0k
19
0Z
1$
0A
0'
#540000
0!
0:
0]
0Q
0^
#545000
1!
1:
1]
1Q
1^
1o
0n
0V
1W
1d
0f
0h
1i
0j
1k
1l
0r
07
18
1Z
0Y
1#
0"
0[
1A
0@
0B
1'
0&
0(
#550000
0!
0:
0]
0Q
0^
#555000
1!
1:
1]
1Q
1^
0o
0p
1n
1V
0X
0W
0d
1e
1h
1j
0l
1r
17
09
08
1Y
1f
0h
0i
0e
0$
0#
1"
1[
1@
0f
1h
1i
1B
1&
1(
#560000
0!
0:
0]
0Q
0^
#565000
1!
1:
1]
1Q
1^
1p
1X
1f
0i
0k
19
0Z
1$
0A
0'
#570000
0!
0:
0]
0Q
0^
#575000
1!
1:
1]
1Q
1^
1o
0n
0V
1W
1d
0f
0h
1i
0j
1k
1l
0r
07
18
1Z
0Y
1#
0"
0[
1A
0@
0B
1'
0&
0(
#580000
0!
0:
0]
0Q
0^
#585000
1!
1:
1]
1Q
1^
0o
0p
1n
1V
0X
0W
0d
1e
1h
1j
0l
1r
17
09
08
1Y
1f
0h
0i
0e
0$
0#
1"
1[
1@
0f
1h
1i
1B
1&
1(
#590000
0!
0:
0]
0Q
0^
#595000
1!
1:
1]
1Q
1^
1p
1X
1f
0i
0k
19
0Z
1$
0A
0'
#600000
0!
0:
0]
0Q
0^
#605000
1!
1:
1]
1Q
1^
1o
0n
0V
1W
1d
0f
0h
1i
0j
1k
1l
0r
07
18
1Z
0Y
1#
0"
0[
1A
0@
0B
1'
0&
0(
#610000
0!
0:
0]
0Q
0^
#615000
1!
1:
1]
1Q
1^
0o
0p
1n
1V
0X
0W
0d
1e
1h
1j
0l
1r
17
09
08
1Y
1f
0h
0i
0e
0$
0#
1"
1[
1@
0f
1h
1i
1B
1&
1(
#620000
0!
0:
0]
0Q
0^
#625000
1!
1:
1]
1Q
1^
1p
1X
1f
0i
0k
19
0Z
1$
0A
0'
#630000
0!
0:
0]
0Q
0^
#635000
1!
1:
1]
1Q
1^
1o
0n
0V
1W
1d
0f
0h
1i
0j
1k
1l
0r
07
18
1Z
0Y
1#
0"
0[
1A
0@
0B
1'
0&
0(
#640000
0!
0:
0]
0Q
0^
#645000
1!
1:
1]
1Q
1^
0o
0p
1n
1V
0X
0W
0d
1e
1h
1j
0l
1r
17
09
08
1Y
1f
0h
0i
0e
0$
0#
1"
1[
1@
0f
1h
1i
1B
1&
1(
#650000
0!
0:
0]
0Q
0^
#655000
1!
1:
1]
1Q
1^
1p
1X
1f
0i
0k
19
0Z
1$
0A
0'
#660000
0!
0:
0]
0Q
0^
#665000
1!
1:
1]
1Q
1^
1o
0n
0V
1W
1d
0f
0h
1i
0j
1k
1l
0r
07
18
1Z
0Y
1#
0"
0[
1A
0@
0B
1'
0&
0(
#670000
0!
0:
0]
0Q
0^
#675000
1!
1:
1]
1Q
1^
0o
0p
1n
1V
0X
0W
0d
1e
1h
1j
0l
1r
17
09
08
1Y
1f
0h
0i
0e
0$
0#
1"
1[
1@
0f
1h
1i
1B
1&
1(
#680000
0!
0:
0]
0Q
0^
#685000
1!
1:
1]
1Q
1^
1p
1X
1f
0i
0k
19
0Z
1$
0A
0'
#690000
0!
0:
0]
0Q
0^
#695000
1!
1:
1]
1Q
1^
1o
0n
0V
1W
1d
0f
0h
1i
0j
1k
1l
0r
07
18
1Z
0Y
1#
0"
0[
1A
0@
0B
1'
0&
0(
#700000
0!
0:
0]
0Q
0^
#705000
1!
1:
1]
1Q
1^
0o
0p
1n
1V
0X
0W
0d
1e
1h
1j
0l
1r
17
09
08
1Y
1f
0h
0i
0e
0$
0#
1"
1[
1@
0f
1h
1i
1B
1&
1(
#710000
0!
0:
0]
0Q
0^
#715000
1!
1:
1]
1Q
1^
1p
1X
1f
0i
0k
19
0Z
1$
0A
0'
#720000
0!
0:
0]
0Q
0^
#725000
1!
1:
1]
1Q
1^
1o
0n
0V
1W
1d
0f
0h
1i
0j
1k
1l
0r
07
18
1Z
0Y
1#
0"
0[
1A
0@
0B
1'
0&
0(
#730000
0!
0:
0]
0Q
0^
#735000
1!
1:
1]
1Q
1^
0o
0p
1n
1V
0X
0W
0d
1e
1h
1j
0l
1r
17
09
08
1Y
1f
0h
0i
0e
0$
0#
1"
1[
1@
0f
1h
1i
1B
1&
1(
#740000
0!
0:
0]
0Q
0^
#745000
1!
1:
1]
1Q
1^
1p
1X
1f
0i
0k
19
0Z
1$
0A
0'
#750000
0!
0:
0]
0Q
0^
#755000
1!
1:
1]
1Q
1^
1o
0n
0V
1W
1d
0f
0h
1i
0j
1k
1l
0r
07
18
1Z
0Y
1#
0"
0[
1A
0@
0B
1'
0&
0(
#760000
0!
0:
0]
0Q
0^
#765000
1!
1:
1]
1Q
1^
0o
0p
1n
1V
0X
0W
0d
1e
1h
1j
0l
1r
17
09
08
1Y
1f
0h
0i
0e
0$
0#
1"
1[
1@
0f
1h
1i
1B
1&
1(
#770000
0!
0:
0]
0Q
0^
#775000
1!
1:
1]
1Q
1^
1p
1X
1f
0i
0k
19
0Z
1$
0A
0'
#780000
0!
0:
0]
0Q
0^
#785000
1!
1:
1]
1Q
1^
1o
0n
0V
1W
1d
0f
0h
1i
0j
1k
1l
0r
07
18
1Z
0Y
1#
0"
0[
1A
0@
0B
1'
0&
0(
#790000
0!
0:
0]
0Q
0^
#795000
1!
1:
1]
1Q
1^
0o
0p
1n
1V
0X
0W
0d
1e
1h
1j
0l
1r
17
09
08
1Y
1f
0h
0i
0e
0$
0#
1"
1[
1@
0f
1h
1i
1B
1&
1(
#800000
0!
0:
0]
0Q
0^
#805000
1!
1:
1]
1Q
1^
1p
1X
1f
0i
0k
19
0Z
1$
0A
0'
#810000
0!
0:
0]
0Q
0^
#815000
1!
1:
1]
1Q
1^
1o
0n
0V
1W
1d
0f
0h
1i
0j
1k
1l
0r
07
18
1Z
0Y
1#
0"
0[
1A
0@
0B
1'
0&
0(
#820000
0!
0:
0]
0Q
0^
#825000
1!
1:
1]
1Q
1^
0o
0p
1n
1V
0X
0W
0d
1e
1h
1j
0l
1r
17
09
08
1Y
1f
0h
0i
0e
0$
0#
1"
1[
1@
0f
1h
1i
1B
1&
1(
#830000
0!
0:
0]
0Q
0^
#835000
1!
1:
1]
1Q
1^
1p
1X
1f
0i
0k
19
0Z
1$
0A
0'
#840000
0!
0:
0]
0Q
0^
#845000
1!
1:
1]
1Q
1^
1o
0n
0V
1W
1d
0f
0h
1i
0j
1k
1l
0r
07
18
1Z
0Y
1#
0"
0[
1A
0@
0B
1'
0&
0(
#850000
0!
0:
0]
0Q
0^
#855000
1!
1:
1]
1Q
1^
0o
0p
1n
1V
0X
0W
0d
1e
1h
1j
0l
1r
17
09
08
1Y
1f
0h
0i
0e
0$
0#
1"
1[
1@
0f
1h
1i
1B
1&
1(
#860000
0!
0:
0]
0Q
0^
#865000
1!
1:
1]
1Q
1^
1p
1X
1f
0i
0k
19
0Z
1$
0A
0'
#870000
0!
0:
0]
0Q
0^
#875000
1!
1:
1]
1Q
1^
1o
0n
0V
1W
1d
0f
0h
1i
0j
1k
1l
0r
07
18
1Z
0Y
1#
0"
0[
1A
0@
0B
1'
0&
0(
#880000
0!
0:
0]
0Q
0^
#885000
1!
1:
1]
1Q
1^
0o
0p
1n
1V
0X
0W
0d
1e
1h
1j
0l
1r
17
09
08
1Y
1f
0h
0i
0e
0$
0#
1"
1[
1@
0f
1h
1i
1B
1&
1(
#890000
0!
0:
0]
0Q
0^
#895000
1!
1:
1]
1Q
1^
1p
1X
1f
0i
0k
19
0Z
1$
0A
0'
#900000
0!
0:
0]
0Q
0^
#905000
1!
1:
1]
1Q
1^
1o
0n
0V
1W
1d
0f
0h
1i
0j
1k
1l
0r
07
18
1Z
0Y
1#
0"
0[
1A
0@
0B
1'
0&
0(
#910000
0!
0:
0]
0Q
0^
#915000
1!
1:
1]
1Q
1^
0o
0p
1n
1V
0X
0W
0d
1e
1h
1j
0l
1r
17
09
08
1Y
1f
0h
0i
0e
0$
0#
1"
1[
1@
0f
1h
1i
1B
1&
1(
#920000
0!
0:
0]
0Q
0^
#925000
1!
1:
1]
1Q
1^
1p
1X
1f
0i
0k
19
0Z
1$
0A
0'
#930000
0!
0:
0]
0Q
0^
#935000
1!
1:
1]
1Q
1^
1o
0n
0V
1W
1d
0f
0h
1i
0j
1k
1l
0r
07
18
1Z
0Y
1#
0"
0[
1A
0@
0B
1'
0&
0(
#940000
0!
0:
0]
0Q
0^
#945000
1!
1:
1]
1Q
1^
0o
0p
1n
1V
0X
0W
0d
1e
1h
1j
0l
1r
17
09
08
1Y
1f
0h
0i
0e
0$
0#
1"
1[
1@
0f
1h
1i
1B
1&
1(
#950000
0!
0:
0]
0Q
0^
#955000
1!
1:
1]
1Q
1^
1p
1X
1f
0i
0k
19
0Z
1$
0A
0'
#960000
0!
0:
0]
0Q
0^
#965000
1!
1:
1]
1Q
1^
1o
0n
0V
1W
1d
0f
0h
1i
0j
1k
1l
0r
07
18
1Z
0Y
1#
0"
0[
1A
0@
0B
1'
0&
0(
#970000
0!
0:
0]
0Q
0^
#975000
1!
1:
1]
1Q
1^
0o
0p
1n
1V
0X
0W
0d
1e
1h
1j
0l
1r
17
09
08
1Y
1f
0h
0i
0e
0$
0#
1"
1[
1@
0f
1h
1i
1B
1&
1(
#980000
0!
0:
0]
0Q
0^
#985000
1!
1:
1]
1Q
1^
1p
1X
1f
0i
0k
19
0Z
1$
0A
0'
#990000
0!
0:
0]
0Q
0^
#995000
1!
1:
1]
1Q
1^
1o
0n
0V
1W
1d
0f
0h
1i
0j
1k
1l
0r
07
18
1Z
0Y
1#
0"
0[
1A
0@
0B
1'
0&
0(
